PWD /Users/mebratuwakeni/Documents/manuscripts/AMA-stix/paper_repo/mixed_methods_RD_AMA
INPUT /usr/local/texlive/2018/texmf.cnf
INPUT /usr/local/texlive/2018/texmf-dist/web2c/texmf.cnf
INPUT /usr/local/texlive/2018/texmf-var/web2c/pdftex/pdflatex.fmt
INPUT /Users/mebratuwakeni/Documents/manuscripts/AMA-stix/paper_repo/mixed_methods_RD_AMA/adaptive_mixed_manuscript_AMA.tex
OUTPUT /Users/mebratuwakeni/Documents/manuscripts/AMA-stix/paper_repo/mixed_methods_RD_AMA/adaptive_mixed_manuscript_AMA.log
INPUT /Users/mebratuwakeni/Documents/manuscripts/AMA-stix/paper_repo/mixed_methods_RD_AMA/WileyNJD-v2.cls
INPUT /Users/mebratuwakeni/Documents/manuscripts/AMA-stix/paper_repo/mixed_methods_RD_AMA/WileyNJD-v2.cls
INPUT /usr/local/texlive/2018/texmf-dist/tex/latex/base/article.cls
INPUT /usr/local/texlive/2018/texmf-dist/tex/latex/base/article.cls
INPUT /usr/local/texlive/2018/texmf-dist/tex/latex/base/fleqn.clo
INPUT /usr/local/texlive/2018/texmf-dist/tex/latex/base/fleqn.clo
INPUT /usr/local/texlive/2018/texmf-dist/tex/latex/base/size10.clo
INPUT /usr/local/texlive/2018/texmf-dist/tex/latex/base/size10.clo
INPUT /usr/local/texlive/2018/texmf-dist/tex/latex/etex-pkg/etex.sty
INPUT /usr/local/texlive/2018/texmf-dist/tex/latex/etex-pkg/etex.sty
INPUT /usr/local/texlive/2018/texmf-dist/tex/latex/graphics/graphicx.sty
INPUT /usr/local/texlive/2018/texmf-dist/tex/latex/graphics/graphicx.sty
INPUT /usr/local/texlive/2018/texmf-dist/tex/latex/graphics/keyval.sty
INPUT /usr/local/texlive/2018/texmf-dist/tex/latex/graphics/keyval.sty
INPUT /usr/local/texlive/2018/texmf-dist/tex/latex/graphics/graphics.sty
INPUT /usr/local/texlive/2018/texmf-dist/tex/latex/graphics/graphics.sty
INPUT /usr/local/texlive/2018/texmf-dist/tex/latex/graphics/trig.sty
INPUT /usr/local/texlive/2018/texmf-dist/tex/latex/graphics/trig.sty
INPUT /usr/local/texlive/2018/texmf-dist/tex/latex/graphics-cfg/graphics.cfg
INPUT /usr/local/texlive/2018/texmf-dist/tex/latex/graphics-cfg/graphics.cfg
INPUT /usr/local/texlive/2018/texmf-dist/tex/latex/graphics-def/pdftex.def
INPUT /usr/local/texlive/2018/texmf-dist/tex/latex/graphics-def/pdftex.def
INPUT /usr/local/texlive/2018/texmf-dist/tex/latex/tools/multicol.sty
INPUT /usr/local/texlive/2018/texmf-dist/tex/latex/tools/multicol.sty
INPUT /usr/local/texlive/2018/texmf-dist/tex/latex/multirow/multirow.sty
INPUT /usr/local/texlive/2018/texmf-dist/tex/latex/multirow/multirow.sty
INPUT /usr/local/texlive/2018/texmf-dist/tex/latex/sttools/cuted.sty
INPUT /usr/local/texlive/2018/texmf-dist/tex/latex/sttools/cuted.sty
INPUT /usr/local/texlive/2018/texmf-dist/tex/generic/oberdiek/ifpdf.sty
INPUT /usr/local/texlive/2018/texmf-dist/tex/generic/oberdiek/ifpdf.sty
INPUT /usr/local/texlive/2018/texmf-dist/tex/latex/url/url.sty
INPUT /usr/local/texlive/2018/texmf-dist/tex/latex/url/url.sty
INPUT /usr/local/texlive/2018/texmf-dist/tex/latex/changepage/changepage.sty
INPUT /usr/local/texlive/2018/texmf-dist/tex/latex/changepage/changepage.sty
INPUT /usr/local/texlive/2018/texmf-dist/tex/latex/tools/calc.sty
INPUT /usr/local/texlive/2018/texmf-dist/tex/latex/tools/calc.sty
INPUT /usr/local/texlive/2018/texmf-dist/tex/latex/xcolor/xcolor.sty
INPUT /usr/local/texlive/2018/texmf-dist/tex/latex/xcolor/xcolor.sty
INPUT /usr/local/texlive/2018/texmf-dist/tex/latex/graphics-cfg/color.cfg
INPUT /usr/local/texlive/2018/texmf-dist/tex/latex/graphics-cfg/color.cfg
INPUT /usr/local/texlive/2018/texmf-dist/tex/latex/float/float.sty
INPUT /usr/local/texlive/2018/texmf-dist/tex/latex/float/float.sty
INPUT /usr/local/texlive/2018/texmf-dist/tex/latex/sttools/floatpag.sty
INPUT /usr/local/texlive/2018/texmf-dist/tex/latex/sttools/floatpag.sty
INPUT /usr/local/texlive/2018/texmf-dist/tex/latex/dblfloatfix/dblfloatfix.sty
INPUT /usr/local/texlive/2018/texmf-dist/tex/latex/dblfloatfix/dblfloatfix.sty
INPUT /usr/local/texlive/2018/texmf-dist/tex/latex/base/fixltx2e.sty
INPUT /usr/local/texlive/2018/texmf-dist/tex/latex/base/fixltx2e.sty
INPUT /usr/local/texlive/2018/texmf-dist/tex/latex/graphics/rotating.sty
INPUT /usr/local/texlive/2018/texmf-dist/tex/latex/graphics/rotating.sty
INPUT /usr/local/texlive/2018/texmf-dist/tex/latex/base/ifthen.sty
INPUT /usr/local/texlive/2018/texmf-dist/tex/latex/base/ifthen.sty
INPUT /usr/local/texlive/2018/texmf-dist/tex/generic/ulem/ulem.sty
INPUT /usr/local/texlive/2018/texmf-dist/tex/generic/ulem/ulem.sty
INPUT /usr/local/texlive/2018/texmf-dist/fonts/map/fontname/texfonts.map
INPUT /usr/local/texlive/2018/texmf-dist/fonts/tfm/public/latex-fonts/lasy6.tfm
INPUT /usr/local/texlive/2018/texmf-dist/tex/latex/tools/enumerate.sty
INPUT /usr/local/texlive/2018/texmf-dist/tex/latex/tools/enumerate.sty
INPUT /usr/local/texlive/2018/texmf-dist/tex/latex/soul/soul.sty
INPUT /usr/local/texlive/2018/texmf-dist/tex/latex/soul/soul.sty
INPUT /usr/local/texlive/2018/texmf-dist/fonts/tfm/jknappen/ec/ectt1000.tfm
INPUT /usr/local/texlive/2018/texmf-dist/tex/latex/caption/caption.sty
INPUT /usr/local/texlive/2018/texmf-dist/tex/latex/caption/caption.sty
INPUT /usr/local/texlive/2018/texmf-dist/tex/latex/caption/caption3.sty
INPUT /usr/local/texlive/2018/texmf-dist/tex/latex/caption/caption3.sty
INPUT /usr/local/texlive/2018/texmf-dist/tex/latex/hyperref/hyperref.sty
INPUT /usr/local/texlive/2018/texmf-dist/tex/latex/hyperref/hyperref.sty
INPUT /usr/local/texlive/2018/texmf-dist/tex/generic/oberdiek/hobsub-hyperref.sty
INPUT /usr/local/texlive/2018/texmf-dist/tex/generic/oberdiek/hobsub-hyperref.sty
INPUT /usr/local/texlive/2018/texmf-dist/tex/generic/oberdiek/hobsub-hyperref.sty
INPUT /usr/local/texlive/2018/texmf-dist/tex/generic/oberdiek/hobsub-generic.sty
INPUT /usr/local/texlive/2018/texmf-dist/tex/generic/oberdiek/hobsub-generic.sty
INPUT /usr/local/texlive/2018/texmf-dist/tex/generic/ifxetex/ifxetex.sty
INPUT /usr/local/texlive/2018/texmf-dist/tex/generic/ifxetex/ifxetex.sty
INPUT /usr/local/texlive/2018/texmf-dist/tex/latex/oberdiek/auxhook.sty
INPUT /usr/local/texlive/2018/texmf-dist/tex/latex/oberdiek/auxhook.sty
INPUT /usr/local/texlive/2018/texmf-dist/tex/latex/oberdiek/kvoptions.sty
INPUT /usr/local/texlive/2018/texmf-dist/tex/latex/oberdiek/kvoptions.sty
INPUT /usr/local/texlive/2018/texmf-dist/tex/latex/hyperref/pd1enc.def
INPUT /usr/local/texlive/2018/texmf-dist/tex/latex/hyperref/pd1enc.def
INPUT /usr/local/texlive/2018/texmf-dist/tex/latex/latexconfig/hyperref.cfg
INPUT /usr/local/texlive/2018/texmf-dist/tex/latex/latexconfig/hyperref.cfg
INPUT /usr/local/texlive/2018/texmf-dist/tex/latex/hyperref/hpdftex.def
INPUT /usr/local/texlive/2018/texmf-dist/tex/latex/hyperref/hpdftex.def
INPUT /usr/local/texlive/2018/texmf-dist/tex/latex/oberdiek/rerunfilecheck.sty
INPUT /usr/local/texlive/2018/texmf-dist/tex/latex/oberdiek/rerunfilecheck.sty
INPUT /usr/local/texlive/2018/texmf-dist/tex/latex/oberdiek/bookmark.sty
INPUT /usr/local/texlive/2018/texmf-dist/tex/latex/oberdiek/bookmark.sty
INPUT /usr/local/texlive/2018/texmf-dist/tex/latex/oberdiek/bkm-pdftex.def
INPUT /usr/local/texlive/2018/texmf-dist/tex/latex/oberdiek/bkm-pdftex.def
INPUT /usr/local/texlive/2018/texmf-dist/tex/latex/subfigure/subfigure.sty
INPUT /usr/local/texlive/2018/texmf-dist/tex/latex/oberdiek/twoopt.sty
INPUT /usr/local/texlive/2018/texmf-dist/tex/latex/oberdiek/twoopt.sty
INPUT /usr/local/texlive/2018/texmf-dist/tex/latex/footmisc/footmisc.sty
INPUT /usr/local/texlive/2018/texmf-dist/tex/latex/footmisc/footmisc.sty
INPUT /usr/local/texlive/2018/texmf-dist/tex/latex/tools/tabularx.sty
INPUT /usr/local/texlive/2018/texmf-dist/tex/latex/tools/tabularx.sty
INPUT /usr/local/texlive/2018/texmf-dist/tex/latex/tools/array.sty
INPUT /usr/local/texlive/2018/texmf-dist/tex/latex/tools/array.sty
INPUT /usr/local/texlive/2018/texmf-dist/tex/latex/varwidth/varwidth.sty
INPUT /usr/local/texlive/2018/texmf-dist/tex/latex/varwidth/varwidth.sty
INPUT /usr/local/texlive/2018/texmf-dist/tex/latex/tools/dcolumn.sty
INPUT /usr/local/texlive/2018/texmf-dist/tex/latex/tools/dcolumn.sty
INPUT /usr/local/texlive/2018/texmf-dist/tex/latex/stix/stix.sty
INPUT /usr/local/texlive/2018/texmf-dist/tex/latex/stix/stix.sty
INPUT /usr/local/texlive/2018/texmf-dist/tex/latex/base/fontenc.sty
INPUT /usr/local/texlive/2018/texmf-dist/tex/latex/base/fontenc.sty
INPUT /usr/local/texlive/2018/texmf-dist/tex/latex/base/t1enc.def
INPUT /usr/local/texlive/2018/texmf-dist/tex/latex/base/t1enc.def
INPUT /usr/local/texlive/2018/texmf-dist/fonts/tfm/jknappen/ec/ecrm1000.tfm
INPUT /usr/local/texlive/2018/texmf-dist/tex/latex/geometry/geometry.sty
INPUT /usr/local/texlive/2018/texmf-dist/tex/latex/geometry/geometry.sty
INPUT /usr/local/texlive/2018/texmf-dist/tex/latex/eso-pic/showframe.sty
INPUT /usr/local/texlive/2018/texmf-dist/tex/latex/eso-pic/showframe.sty
INPUT /usr/local/texlive/2018/texmf-dist/tex/latex/eso-pic/eso-pic.sty
INPUT /usr/local/texlive/2018/texmf-dist/tex/latex/eso-pic/eso-pic.sty
INPUT /Users/mebratuwakeni/Documents/manuscripts/AMA-stix/paper_repo/mixed_methods_RD_AMA/NJDnatbib.sty
INPUT /Users/mebratuwakeni/Documents/manuscripts/AMA-stix/paper_repo/mixed_methods_RD_AMA/NJDnatbib.sty
INPUT /Users/mebratuwakeni/Documents/manuscripts/AMA-stix/paper_repo/mixed_methods_RD_AMA/NJDnatbib.sty
INPUT /usr/local/texlive/2018/texmf-dist/tex/latex/booktabs/booktabs.sty
INPUT /usr/local/texlive/2018/texmf-dist/tex/latex/booktabs/booktabs.sty
INPUT /usr/local/texlive/2018/texmf-dist/tex/latex/amsmath/amsmath.sty
INPUT /usr/local/texlive/2018/texmf-dist/tex/latex/amsmath/amsmath.sty
INPUT /usr/local/texlive/2018/texmf-dist/tex/latex/amsmath/amstext.sty
INPUT /usr/local/texlive/2018/texmf-dist/tex/latex/amsmath/amstext.sty
INPUT /usr/local/texlive/2018/texmf-dist/tex/latex/amsmath/amsgen.sty
INPUT /usr/local/texlive/2018/texmf-dist/tex/latex/amsmath/amsgen.sty
INPUT /usr/local/texlive/2018/texmf-dist/tex/latex/amsmath/amsbsy.sty
INPUT /usr/local/texlive/2018/texmf-dist/tex/latex/amsmath/amsbsy.sty
INPUT /usr/local/texlive/2018/texmf-dist/tex/latex/amsmath/amsopn.sty
INPUT /usr/local/texlive/2018/texmf-dist/tex/latex/amsmath/amsopn.sty
INPUT /usr/local/texlive/2018/texmf-dist/tex/latex/amscls/amsthm.sty
INPUT /usr/local/texlive/2018/texmf-dist/tex/latex/amscls/amsthm.sty
INPUT /usr/local/texlive/2018/texmf-dist/tex/latex/algorithms/algorithm.sty
INPUT /usr/local/texlive/2018/texmf-dist/tex/latex/algorithms/algorithm.sty
INPUT /usr/local/texlive/2018/texmf-dist/tex/latex/algorithmicx/algorithmicx.sty
INPUT /usr/local/texlive/2018/texmf-dist/tex/latex/algorithmicx/algorithmicx.sty
INPUT /usr/local/texlive/2018/texmf-dist/tex/latex/algorithmicx/algpseudocode.sty
INPUT /usr/local/texlive/2018/texmf-dist/tex/latex/algorithmicx/algpseudocode.sty
INPUT /usr/local/texlive/2018/texmf-dist/tex/latex/listings/listings.sty
INPUT /usr/local/texlive/2018/texmf-dist/tex/latex/listings/listings.sty
INPUT /usr/local/texlive/2018/texmf-dist/tex/latex/listings/lstmisc.sty
INPUT /usr/local/texlive/2018/texmf-dist/tex/latex/listings/lstmisc.sty
INPUT /usr/local/texlive/2018/texmf-dist/tex/latex/listings/listings.cfg
INPUT /usr/local/texlive/2018/texmf-dist/tex/latex/listings/listings.cfg
INPUT /usr/local/texlive/2018/texmf-dist/tex/latex/base/alltt.sty
INPUT /usr/local/texlive/2018/texmf-dist/tex/latex/base/alltt.sty
INPUT /usr/local/texlive/2018/texmf-dist/tex/latex/wrapfig/wrapfig.sty
INPUT /usr/local/texlive/2018/texmf-dist/tex/latex/wrapfig/wrapfig.sty
INPUT /usr/local/texlive/2018/texmf-dist/tex/latex/moreverb/moreverb.sty
INPUT /usr/local/texlive/2018/texmf-dist/tex/latex/moreverb/moreverb.sty
INPUT /usr/local/texlive/2018/texmf-dist/tex/latex/tools/verbatim.sty
INPUT /usr/local/texlive/2018/texmf-dist/tex/latex/tools/verbatim.sty
INPUT /Users/mebratuwakeni/Documents/manuscripts/AMA-stix/paper_repo/mixed_methods_RD_AMA/preamble.tex
INPUT /Users/mebratuwakeni/Documents/manuscripts/AMA-stix/paper_repo/mixed_methods_RD_AMA/preamble.tex
INPUT /usr/local/texlive/2018/texmf-dist/tex/latex/lineno/lineno.sty
INPUT /usr/local/texlive/2018/texmf-dist/tex/latex/lineno/lineno.sty
INPUT /usr/local/texlive/2018/texmf-dist/tex/latex/caption/subcaption.sty
INPUT /usr/local/texlive/2018/texmf-dist/tex/latex/caption/subcaption.sty
INPUT /usr/local/texlive/2018/texmf-dist/tex/latex/scalerel/scalerel.sty
INPUT /usr/local/texlive/2018/texmf-dist/tex/latex/scalerel/scalerel.sty
INPUT /usr/local/texlive/2018/texmf-dist/tex/latex/etoolbox/etoolbox.sty
INPUT /usr/local/texlive/2018/texmf-dist/tex/latex/etoolbox/etoolbox.sty
INPUT /usr/local/texlive/2018/texmf-dist/tex/latex/bezos/accents.sty
INPUT /usr/local/texlive/2018/texmf-dist/tex/latex/bezos/accents.sty
INPUT /usr/local/texlive/2018/texmf-dist/tex/latex/tools/bm.sty
INPUT /usr/local/texlive/2018/texmf-dist/tex/latex/tools/bm.sty
INPUT /usr/local/texlive/2018/texmf-dist/tex/latex/doublestroke/dsfont.sty
INPUT /usr/local/texlive/2018/texmf-dist/tex/latex/doublestroke/dsfont.sty
INPUT /usr/local/texlive/2018/texmf-dist/tex/generic/navigator/navigator.sty
INPUT /usr/local/texlive/2018/texmf-dist/tex/generic/navigator/navigator.sty
INPUT /usr/local/texlive/2018/texmf-dist/tex/generic/navigator/navigator.tex
INPUT /usr/local/texlive/2018/texmf-dist/tex/generic/yax/yax.tex
INPUT /usr/local/texlive/2018/texmf-dist/tex/generic/texapi/texapi.tex
OUTPUT /Users/mebratuwakeni/Documents/manuscripts/AMA-stix/paper_repo/mixed_methods_RD_AMA/adaptive_mixed_manuscript_AMA.pdf
INPUT /usr/local/texlive/2018/texmf-dist/tex/latex/mathtools/empheq.sty
INPUT /usr/local/texlive/2018/texmf-dist/tex/latex/mathtools/empheq.sty
INPUT /usr/local/texlive/2018/texmf-dist/tex/latex/mathtools/mhsetup.sty
INPUT /usr/local/texlive/2018/texmf-dist/tex/latex/mathtools/mhsetup.sty
INPUT /usr/local/texlive/2018/texmf-dist/tex/latex/mathtools/mathtools.sty
INPUT /usr/local/texlive/2018/texmf-dist/tex/latex/mathtools/mathtools.sty
INPUT /usr/local/texlive/2018/texmf-dist/tex/latex/tcolorbox/tcolorbox.sty
INPUT /usr/local/texlive/2018/texmf-dist/tex/latex/tcolorbox/tcolorbox.sty
INPUT /usr/local/texlive/2018/texmf-dist/tex/latex/pgf/basiclayer/pgf.sty
INPUT /usr/local/texlive/2018/texmf-dist/tex/latex/pgf/basiclayer/pgf.sty
INPUT /usr/local/texlive/2018/texmf-dist/tex/latex/pgf/utilities/pgfrcs.sty
INPUT /usr/local/texlive/2018/texmf-dist/tex/latex/pgf/utilities/pgfrcs.sty
INPUT /usr/local/texlive/2018/texmf-dist/tex/generic/pgf/utilities/pgfutil-common.tex
INPUT /usr/local/texlive/2018/texmf-dist/tex/generic/pgf/utilities/pgfutil-common-lists.tex
INPUT /usr/local/texlive/2018/texmf-dist/tex/generic/pgf/utilities/pgfutil-latex.def
INPUT /usr/local/texlive/2018/texmf-dist/tex/latex/ms/everyshi.sty
INPUT /usr/local/texlive/2018/texmf-dist/tex/latex/ms/everyshi.sty
INPUT /usr/local/texlive/2018/texmf-dist/tex/generic/pgf/utilities/pgfrcs.code.tex
INPUT /usr/local/texlive/2018/texmf-dist/tex/generic/pgf/utilities/pgfrcs.code.tex
INPUT /usr/local/texlive/2018/texmf-dist/tex/latex/pgf/basiclayer/pgfcore.sty
INPUT /usr/local/texlive/2018/texmf-dist/tex/latex/pgf/basiclayer/pgfcore.sty
INPUT /usr/local/texlive/2018/texmf-dist/tex/latex/pgf/systemlayer/pgfsys.sty
INPUT /usr/local/texlive/2018/texmf-dist/tex/latex/pgf/systemlayer/pgfsys.sty
INPUT /usr/local/texlive/2018/texmf-dist/tex/generic/pgf/systemlayer/pgfsys.code.tex
INPUT /usr/local/texlive/2018/texmf-dist/tex/generic/pgf/systemlayer/pgfsys.code.tex
INPUT /usr/local/texlive/2018/texmf-dist/tex/generic/pgf/utilities/pgfkeys.code.tex
INPUT /usr/local/texlive/2018/texmf-dist/tex/generic/pgf/utilities/pgfkeysfiltered.code.tex
INPUT /usr/local/texlive/2018/texmf-dist/tex/generic/pgf/systemlayer/pgf.cfg
INPUT /usr/local/texlive/2018/texmf-dist/tex/generic/pgf/systemlayer/pgfsys-pdftex.def
INPUT /usr/local/texlive/2018/texmf-dist/tex/generic/pgf/systemlayer/pgfsys-pdftex.def
INPUT /usr/local/texlive/2018/texmf-dist/tex/generic/pgf/systemlayer/pgfsys-common-pdf.def
INPUT /usr/local/texlive/2018/texmf-dist/tex/generic/pgf/systemlayer/pgfsyssoftpath.code.tex
INPUT /usr/local/texlive/2018/texmf-dist/tex/generic/pgf/systemlayer/pgfsyssoftpath.code.tex
INPUT /usr/local/texlive/2018/texmf-dist/tex/generic/pgf/systemlayer/pgfsysprotocol.code.tex
INPUT /usr/local/texlive/2018/texmf-dist/tex/generic/pgf/systemlayer/pgfsysprotocol.code.tex
INPUT /usr/local/texlive/2018/texmf-dist/tex/generic/pgf/basiclayer/pgfcore.code.tex
INPUT /usr/local/texlive/2018/texmf-dist/tex/generic/pgf/basiclayer/pgfcore.code.tex
INPUT /usr/local/texlive/2018/texmf-dist/tex/generic/pgf/math/pgfmath.code.tex
INPUT /usr/local/texlive/2018/texmf-dist/tex/generic/pgf/math/pgfmathcalc.code.tex
INPUT /usr/local/texlive/2018/texmf-dist/tex/generic/pgf/math/pgfmathutil.code.tex
INPUT /usr/local/texlive/2018/texmf-dist/tex/generic/pgf/math/pgfmathparser.code.tex
INPUT /usr/local/texlive/2018/texmf-dist/tex/generic/pgf/math/pgfmathfunctions.code.tex
INPUT /usr/local/texlive/2018/texmf-dist/tex/generic/pgf/math/pgfmathfunctions.basic.code.tex
INPUT /usr/local/texlive/2018/texmf-dist/tex/generic/pgf/math/pgfmathfunctions.trigonometric.code.tex
INPUT /usr/local/texlive/2018/texmf-dist/tex/generic/pgf/math/pgfmathfunctions.random.code.tex
INPUT /usr/local/texlive/2018/texmf-dist/tex/generic/pgf/math/pgfmathfunctions.comparison.code.tex
INPUT /usr/local/texlive/2018/texmf-dist/tex/generic/pgf/math/pgfmathfunctions.base.code.tex
INPUT /usr/local/texlive/2018/texmf-dist/tex/generic/pgf/math/pgfmathfunctions.round.code.tex
INPUT /usr/local/texlive/2018/texmf-dist/tex/generic/pgf/math/pgfmathfunctions.misc.code.tex
INPUT /usr/local/texlive/2018/texmf-dist/tex/generic/pgf/math/pgfmathfunctions.integerarithmetics.code.tex
INPUT /usr/local/texlive/2018/texmf-dist/tex/generic/pgf/math/pgfmathfloat.code.tex
INPUT /usr/local/texlive/2018/texmf-dist/tex/generic/pgf/basiclayer/pgfcorepoints.code.tex
INPUT /usr/local/texlive/2018/texmf-dist/tex/generic/pgf/basiclayer/pgfcorepathconstruct.code.tex
INPUT /usr/local/texlive/2018/texmf-dist/tex/generic/pgf/basiclayer/pgfcorepathusage.code.tex
INPUT /usr/local/texlive/2018/texmf-dist/tex/generic/pgf/basiclayer/pgfcorescopes.code.tex
INPUT /usr/local/texlive/2018/texmf-dist/tex/generic/pgf/basiclayer/pgfcoregraphicstate.code.tex
INPUT /usr/local/texlive/2018/texmf-dist/tex/generic/pgf/basiclayer/pgfcoretransformations.code.tex
INPUT /usr/local/texlive/2018/texmf-dist/tex/generic/pgf/basiclayer/pgfcorequick.code.tex
INPUT /usr/local/texlive/2018/texmf-dist/tex/generic/pgf/basiclayer/pgfcoreobjects.code.tex
INPUT /usr/local/texlive/2018/texmf-dist/tex/generic/pgf/basiclayer/pgfcorepathprocessing.code.tex
INPUT /usr/local/texlive/2018/texmf-dist/tex/generic/pgf/basiclayer/pgfcorearrows.code.tex
INPUT /usr/local/texlive/2018/texmf-dist/tex/generic/pgf/basiclayer/pgfcoreshade.code.tex
INPUT /usr/local/texlive/2018/texmf-dist/tex/generic/pgf/basiclayer/pgfcoreimage.code.tex
INPUT /usr/local/texlive/2018/texmf-dist/tex/generic/pgf/basiclayer/pgfcoreexternal.code.tex
INPUT /usr/local/texlive/2018/texmf-dist/tex/generic/pgf/basiclayer/pgfcorelayers.code.tex
INPUT /usr/local/texlive/2018/texmf-dist/tex/generic/pgf/basiclayer/pgfcoretransparency.code.tex
INPUT /usr/local/texlive/2018/texmf-dist/tex/generic/pgf/basiclayer/pgfcorepatterns.code.tex
INPUT /usr/local/texlive/2018/texmf-dist/tex/generic/pgf/modules/pgfmoduleshapes.code.tex
INPUT /usr/local/texlive/2018/texmf-dist/tex/generic/pgf/modules/pgfmoduleplot.code.tex
INPUT /usr/local/texlive/2018/texmf-dist/tex/latex/pgf/compatibility/pgfcomp-version-0-65.sty
INPUT /usr/local/texlive/2018/texmf-dist/tex/latex/pgf/compatibility/pgfcomp-version-0-65.sty
INPUT /usr/local/texlive/2018/texmf-dist/tex/latex/pgf/compatibility/pgfcomp-version-1-18.sty
INPUT /usr/local/texlive/2018/texmf-dist/tex/latex/pgf/compatibility/pgfcomp-version-1-18.sty
INPUT /usr/local/texlive/2018/texmf-dist/tex/latex/environ/environ.sty
INPUT /usr/local/texlive/2018/texmf-dist/tex/latex/environ/environ.sty
INPUT /usr/local/texlive/2018/texmf-dist/tex/latex/trimspaces/trimspaces.sty
INPUT /usr/local/texlive/2018/texmf-dist/tex/latex/trimspaces/trimspaces.sty
INPUT /usr/local/texlive/2018/texmf-dist/tex/latex/tcolorbox/tcbraster.code.tex
INPUT /usr/local/texlive/2018/texmf-dist/tex/latex/tcolorbox/tcbskins.code.tex
INPUT /usr/local/texlive/2018/texmf-dist/tex/latex/pgf/frontendlayer/tikz.sty
INPUT /usr/local/texlive/2018/texmf-dist/tex/latex/pgf/frontendlayer/tikz.sty
INPUT /usr/local/texlive/2018/texmf-dist/tex/latex/pgf/utilities/pgffor.sty
INPUT /usr/local/texlive/2018/texmf-dist/tex/latex/pgf/utilities/pgffor.sty
INPUT /usr/local/texlive/2018/texmf-dist/tex/latex/pgf/utilities/pgfkeys.sty
INPUT /usr/local/texlive/2018/texmf-dist/tex/latex/pgf/utilities/pgfkeys.sty
INPUT /usr/local/texlive/2018/texmf-dist/tex/generic/pgf/utilities/pgfkeys.code.tex
INPUT /usr/local/texlive/2018/texmf-dist/tex/generic/pgf/utilities/pgfkeys.code.tex
INPUT /usr/local/texlive/2018/texmf-dist/tex/latex/pgf/math/pgfmath.sty
INPUT /usr/local/texlive/2018/texmf-dist/tex/latex/pgf/math/pgfmath.sty
INPUT /usr/local/texlive/2018/texmf-dist/tex/generic/pgf/math/pgfmath.code.tex
INPUT /usr/local/texlive/2018/texmf-dist/tex/generic/pgf/math/pgfmath.code.tex
INPUT /usr/local/texlive/2018/texmf-dist/tex/generic/pgf/utilities/pgffor.code.tex
INPUT /usr/local/texlive/2018/texmf-dist/tex/generic/pgf/utilities/pgffor.code.tex
INPUT /usr/local/texlive/2018/texmf-dist/tex/generic/pgf/math/pgfmath.code.tex
INPUT /usr/local/texlive/2018/texmf-dist/tex/generic/pgf/frontendlayer/tikz/tikz.code.tex
INPUT /usr/local/texlive/2018/texmf-dist/tex/generic/pgf/frontendlayer/tikz/tikz.code.tex
INPUT /usr/local/texlive/2018/texmf-dist/tex/generic/pgf/libraries/pgflibraryplothandlers.code.tex
INPUT /usr/local/texlive/2018/texmf-dist/tex/generic/pgf/libraries/pgflibraryplothandlers.code.tex
INPUT /usr/local/texlive/2018/texmf-dist/tex/generic/pgf/modules/pgfmodulematrix.code.tex
INPUT /usr/local/texlive/2018/texmf-dist/tex/generic/pgf/frontendlayer/tikz/libraries/tikzlibrarytopaths.code.tex
INPUT /usr/local/texlive/2018/texmf-dist/tex/generic/pgf/frontendlayer/tikz/libraries/tikzlibrarytopaths.code.tex
INPUT /usr/local/texlive/2018/texmf-dist/tex/latex/tcolorbox/tcbskinsjigsaw.code.tex
INPUT /usr/local/texlive/2018/texmf-dist/tex/latex/tcolorbox/tcbbreakable.code.tex
INPUT /usr/local/texlive/2018/texmf-dist/tex/latex/tcolorbox/tcbhooks.code.tex
INPUT /usr/local/texlive/2018/texmf-dist/tex/latex/tcolorbox/tcbtheorems.code.tex
INPUT /usr/local/texlive/2018/texmf-dist/tex/latex/tcolorbox/tcbfitting.code.tex
INPUT /usr/local/texlive/2018/texmf-dist/tex/latex/tcolorbox/tcbxparse.code.tex
INPUT /usr/local/texlive/2018/texmf-dist/tex/latex/l3packages/xparse/xparse.sty
INPUT /usr/local/texlive/2018/texmf-dist/tex/latex/l3packages/xparse/xparse.sty
INPUT /usr/local/texlive/2018/texmf-dist/tex/latex/l3kernel/expl3.sty
INPUT /usr/local/texlive/2018/texmf-dist/tex/latex/l3kernel/expl3.sty
INPUT /usr/local/texlive/2018/texmf-dist/tex/latex/l3kernel/expl3-code.tex
INPUT /usr/local/texlive/2018/texmf-dist/tex/latex/l3kernel/expl3-code.tex
INPUT /usr/local/texlive/2018/texmf-dist/tex/generic/unicode-data/UnicodeData.txt
INPUT /usr/local/texlive/2018/texmf-dist/tex/generic/unicode-data/CaseFolding.txt
INPUT /usr/local/texlive/2018/texmf-dist/tex/generic/unicode-data/SpecialCasing.txt
INPUT /usr/local/texlive/2018/texmf-dist/fonts/tfm/public/cm/cmr10.tfm
INPUT /usr/local/texlive/2018/texmf-dist/fonts/tfm/public/cm/cmr10.tfm
INPUT /usr/local/texlive/2018/texmf-dist/fonts/tfm/public/cm/cmr10.tfm
INPUT /usr/local/texlive/2018/texmf-dist/fonts/tfm/public/cm/cmr10.tfm
INPUT /usr/local/texlive/2018/texmf-dist/fonts/tfm/public/cm/cmr10.tfm
INPUT /usr/local/texlive/2018/texmf-dist/fonts/tfm/public/cm/cmr10.tfm
INPUT /usr/local/texlive/2018/texmf-dist/fonts/tfm/public/cm/cmr10.tfm
INPUT /usr/local/texlive/2018/texmf-dist/fonts/tfm/public/cm/cmr10.tfm
INPUT /usr/local/texlive/2018/texmf-dist/tex/latex/l3kernel/l3pdfmode.def
INPUT /usr/local/texlive/2018/texmf-dist/tex/latex/l3kernel/l3pdfmode.def
INPUT /usr/local/texlive/2018/texmf-dist/tex/latex/tcolorbox/tcblistingsutf8.code.tex
INPUT /usr/local/texlive/2018/texmf-dist/tex/latex/oberdiek/listingsutf8.sty
INPUT /usr/local/texlive/2018/texmf-dist/tex/latex/oberdiek/listingsutf8.sty
INPUT /usr/local/texlive/2018/texmf-dist/tex/generic/oberdiek/stringenc.sty
INPUT /usr/local/texlive/2018/texmf-dist/tex/generic/oberdiek/stringenc.sty
INPUT /usr/local/texlive/2018/texmf-dist/tex/latex/tcolorbox/tcblistings.code.tex
INPUT /usr/local/texlive/2018/texmf-dist/tex/latex/tcolorbox/tcblistingscore.code.tex
INPUT /usr/local/texlive/2018/texmf-dist/tex/latex/tcolorbox/tcbprocessing.code.tex
INPUT /usr/local/texlive/2018/texmf-dist/tex/latex/tools/shellesc.sty
INPUT /usr/local/texlive/2018/texmf-dist/tex/latex/tools/shellesc.sty
INPUT /usr/local/texlive/2018/texmf-dist/tex/latex/tcolorbox/tcbexternal.code.tex
INPUT /usr/local/texlive/2018/texmf-dist/tex/latex/tcolorbox/tcbmagazine.code.tex
INPUT /usr/local/texlive/2018/texmf-dist/tex/latex/tcolorbox/tcbvignette.code.tex
INPUT /usr/local/texlive/2018/texmf-dist/tex/generic/pgf/frontendlayer/tikz/libraries/tikzlibraryfadings.code.tex
INPUT /usr/local/texlive/2018/texmf-dist/tex/generic/pgf/frontendlayer/tikz/libraries/tikzlibraryfadings.code.tex
INPUT /usr/local/texlive/2018/texmf-dist/tex/generic/pgf/libraries/pgflibraryfadings.code.tex
INPUT /usr/local/texlive/2018/texmf-dist/tex/generic/pgf/libraries/pgflibraryfadings.code.tex
INPUT /usr/local/texlive/2018/texmf-dist/tex/latex/tcolorbox/tcbposter.code.tex
INPUT /usr/local/texlive/2018/texmf-dist/tex/latex/placeins/placeins.sty
INPUT /usr/local/texlive/2018/texmf-dist/tex/latex/placeins/placeins.sty
INPUT /usr/local/texlive/2018/texmf-dist/tex/latex/pgfplots/pgfplots.sty
INPUT /usr/local/texlive/2018/texmf-dist/tex/latex/pgfplots/pgfplots.sty
INPUT /usr/local/texlive/2018/texmf-dist/tex/generic/pgfplots/pgfplots.revision.tex
INPUT /usr/local/texlive/2018/texmf-dist/tex/generic/pgfplots/pgfplots.revision.tex
INPUT /usr/local/texlive/2018/texmf-dist/tex/generic/pgf/systemlayer/pgfsys-luatex.def
INPUT /usr/local/texlive/2018/texmf-dist/tex/generic/pgfplots/pgfplots.code.tex
INPUT /usr/local/texlive/2018/texmf-dist/tex/generic/pgfplots/pgfplotscore.code.tex
INPUT /usr/local/texlive/2018/texmf-dist/tex/generic/pgfplots/sys/pgfplotssysgeneric.code.tex
INPUT /usr/local/texlive/2018/texmf-dist/tex/generic/pgfplots/libs/pgfplotslibrary.code.tex
INPUT /usr/local/texlive/2018/texmf-dist/tex/generic/pgfplots/oldpgfcompatib/pgfplotsoldpgfsupp_loader.code.tex
INPUT /usr/local/texlive/2018/texmf-dist/tex/generic/pgf/libraries/pgflibraryfpu.code.tex
INPUT /usr/local/texlive/2018/texmf-dist/tex/generic/pgf/libraries/pgflibraryfpu.code.tex
INPUT /usr/local/texlive/2018/texmf-dist/tex/generic/pgf/libraries/pgflibraryfpu.code.tex
INPUT /usr/local/texlive/2018/texmf-dist/tex/generic/pgfplots/oldpgfcompatib/pgfplotsoldpgfsupp_pgflibraryfpu.code.tex
INPUT /usr/local/texlive/2018/texmf-dist/tex/generic/pgfplots/oldpgfcompatib/pgfplotsoldpgfsupp_pgfmathfloat.code.tex
INPUT /usr/local/texlive/2018/texmf-dist/tex/generic/pgfplots/oldpgfcompatib/pgfplotsoldpgfsupp_leq.code.tex
INPUT /usr/local/texlive/2018/texmf-dist/tex/generic/pgfplots/util/pgfplotsutil.code.tex
INPUT /usr/local/texlive/2018/texmf-dist/tex/generic/pgfplots/liststructure/pgfplotsliststructure.code.tex
INPUT /usr/local/texlive/2018/texmf-dist/tex/generic/pgfplots/liststructure/pgfplotsliststructureext.code.tex
INPUT /usr/local/texlive/2018/texmf-dist/tex/generic/pgfplots/liststructure/pgfplotsarray.code.tex
INPUT /usr/local/texlive/2018/texmf-dist/tex/generic/pgfplots/liststructure/pgfplotsmatrix.code.tex
INPUT /usr/local/texlive/2018/texmf-dist/tex/generic/pgfplots/numtable/pgfplotstableshared.code.tex
INPUT /usr/local/texlive/2018/texmf-dist/tex/generic/pgfplots/liststructure/pgfplotsdeque.code.tex
INPUT /usr/local/texlive/2018/texmf-dist/tex/generic/pgfplots/util/pgfplotsbinary.code.tex
INPUT /usr/local/texlive/2018/texmf-dist/tex/generic/pgfplots/util/pgfplotsbinary.data.code.tex
INPUT /usr/local/texlive/2018/texmf-dist/tex/generic/pgfplots/util/pgfplotsutil.verb.code.tex
INPUT /usr/local/texlive/2018/texmf-dist/tex/generic/pgfplots/libs/pgflibrarypgfplots.surfshading.code.tex
INPUT /usr/local/texlive/2018/texmf-dist/tex/generic/pgfplots/sys/pgflibrarypgfplots.surfshading.pgfsys-pdftex.def
INPUT /usr/local/texlive/2018/texmf-dist/tex/generic/pgfplots/sys/pgflibrarypgfplots.surfshading.pgfsys-pdftex.def
INPUT /usr/local/texlive/2018/texmf-dist/tex/generic/pgfplots/util/pgfplotscolormap.code.tex
INPUT /usr/local/texlive/2018/texmf-dist/tex/generic/pgfplots/util/pgfplotscolor.code.tex
INPUT /usr/local/texlive/2018/texmf-dist/tex/generic/pgfplots/pgfplotsstackedplots.code.tex
INPUT /usr/local/texlive/2018/texmf-dist/tex/generic/pgfplots/pgfplotsplothandlers.code.tex
INPUT /usr/local/texlive/2018/texmf-dist/tex/generic/pgfplots/pgfplotsmeshplothandler.code.tex
INPUT /usr/local/texlive/2018/texmf-dist/tex/generic/pgfplots/pgfplotsmeshplotimage.code.tex
INPUT /usr/local/texlive/2018/texmf-dist/tex/generic/pgfplots/pgfplots.scaling.code.tex
INPUT /usr/local/texlive/2018/texmf-dist/tex/generic/pgfplots/pgfplotscoordprocessing.code.tex
INPUT /usr/local/texlive/2018/texmf-dist/tex/generic/pgfplots/pgfplots.errorbars.code.tex
INPUT /usr/local/texlive/2018/texmf-dist/tex/generic/pgfplots/pgfplots.markers.code.tex
INPUT /usr/local/texlive/2018/texmf-dist/tex/generic/pgfplots/pgfplotsticks.code.tex
INPUT /usr/local/texlive/2018/texmf-dist/tex/generic/pgfplots/pgfplots.paths.code.tex
INPUT /usr/local/texlive/2018/texmf-dist/tex/generic/pgf/frontendlayer/tikz/libraries/tikzlibrarydecorations.code.tex
INPUT /usr/local/texlive/2018/texmf-dist/tex/generic/pgf/frontendlayer/tikz/libraries/tikzlibrarydecorations.code.tex
INPUT /usr/local/texlive/2018/texmf-dist/tex/generic/pgf/modules/pgfmoduledecorations.code.tex
INPUT /usr/local/texlive/2018/texmf-dist/tex/generic/pgf/frontendlayer/tikz/libraries/tikzlibrarydecorations.pathmorphing.code.tex
INPUT /usr/local/texlive/2018/texmf-dist/tex/generic/pgf/frontendlayer/tikz/libraries/tikzlibrarydecorations.pathmorphing.code.tex
INPUT /usr/local/texlive/2018/texmf-dist/tex/generic/pgf/libraries/decorations/pgflibrarydecorations.pathmorphing.code.tex
INPUT /usr/local/texlive/2018/texmf-dist/tex/generic/pgf/libraries/decorations/pgflibrarydecorations.pathmorphing.code.tex
INPUT /usr/local/texlive/2018/texmf-dist/tex/generic/pgf/frontendlayer/tikz/libraries/tikzlibrarydecorations.pathreplacing.code.tex
INPUT /usr/local/texlive/2018/texmf-dist/tex/generic/pgf/frontendlayer/tikz/libraries/tikzlibrarydecorations.pathreplacing.code.tex
INPUT /usr/local/texlive/2018/texmf-dist/tex/generic/pgf/libraries/decorations/pgflibrarydecorations.pathreplacing.code.tex
INPUT /usr/local/texlive/2018/texmf-dist/tex/generic/pgf/libraries/decorations/pgflibrarydecorations.pathreplacing.code.tex
INPUT /usr/local/texlive/2018/texmf-dist/tex/generic/pgf/frontendlayer/tikz/libraries/tikzlibraryplotmarks.code.tex
INPUT /usr/local/texlive/2018/texmf-dist/tex/generic/pgf/frontendlayer/tikz/libraries/tikzlibraryplotmarks.code.tex
INPUT /usr/local/texlive/2018/texmf-dist/tex/generic/pgf/libraries/pgflibraryplotmarks.code.tex
INPUT /usr/local/texlive/2018/texmf-dist/tex/generic/pgf/libraries/pgflibraryplotmarks.code.tex
INPUT /usr/local/texlive/2018/texmf-dist/tex/generic/pgf/libraries/pgflibraryarrows.meta.code.tex
INPUT /usr/local/texlive/2018/texmf-dist/tex/generic/pgf/libraries/pgflibraryarrows.meta.code.tex
INPUT /usr/local/texlive/2018/texmf-dist/tex/generic/pgf/libraries/pgflibraryarrows.meta.code.tex
INPUT /usr/local/texlive/2018/texmf-dist/tex/generic/pgfplots/libs/tikzlibrarypgfplots.patchplots.code.tex
INPUT /usr/local/texlive/2018/texmf-dist/tex/generic/pgfplots/libs/tikzlibrarypgfplots.patchplots.code.tex
INPUT /usr/local/texlive/2018/texmf-dist/tex/latex/oberdiek/grffile.sty
INPUT /usr/local/texlive/2018/texmf-dist/tex/latex/oberdiek/grffile.sty
INPUT /Users/mebratuwakeni/Documents/manuscripts/AMA-stix/paper_repo/mixed_methods_RD_AMA/adaptive_mixed_manuscript_AMA.aux
INPUT /Users/mebratuwakeni/Documents/manuscripts/AMA-stix/paper_repo/mixed_methods_RD_AMA/adaptive_mixed_manuscript_AMA.aux
OUTPUT /Users/mebratuwakeni/Documents/manuscripts/AMA-stix/paper_repo/mixed_methods_RD_AMA/adaptive_mixed_manuscript_AMA.aux
INPUT /usr/local/texlive/2018/texmf-dist/tex/latex/stix/ls1stix.fd
INPUT /usr/local/texlive/2018/texmf-dist/tex/latex/stix/ls1stix.fd
INPUT /usr/local/texlive/2018/texmf-dist/tex/latex/stix/ls2stix.fd
INPUT /usr/local/texlive/2018/texmf-dist/tex/latex/stix/ls2stix.fd
INPUT /usr/local/texlive/2018/texmf-dist/tex/latex/stix/t1stix.fd
INPUT /usr/local/texlive/2018/texmf-dist/tex/latex/stix/t1stix.fd
INPUT /usr/local/texlive/2018/texmf-dist/fonts/tfm/public/stix/t1-stixgeneral.tfm
INPUT /usr/local/texlive/2018/texmf-dist/tex/context/base/mkii/supp-pdf.mkii
INPUT /usr/local/texlive/2018/texmf-dist/tex/context/base/mkii/supp-pdf.mkii
INPUT /usr/local/texlive/2018/texmf-dist/tex/latex/oberdiek/epstopdf-base.sty
INPUT /usr/local/texlive/2018/texmf-dist/tex/latex/oberdiek/epstopdf-base.sty
INPUT /usr/local/texlive/2018/texmf-dist/tex/latex/oberdiek/grfext.sty
INPUT /usr/local/texlive/2018/texmf-dist/tex/latex/oberdiek/grfext.sty
INPUT /usr/local/texlive/2018/texmf-dist/tex/latex/latexconfig/epstopdf-sys.cfg
INPUT /usr/local/texlive/2018/texmf-dist/tex/latex/latexconfig/epstopdf-sys.cfg
INPUT /usr/local/texlive/2018/texmf-dist/tex/latex/hyperref/nameref.sty
INPUT /usr/local/texlive/2018/texmf-dist/tex/latex/hyperref/nameref.sty
INPUT /usr/local/texlive/2018/texmf-dist/tex/generic/oberdiek/gettitlestring.sty
INPUT /usr/local/texlive/2018/texmf-dist/tex/generic/oberdiek/gettitlestring.sty
INPUT /usr/local/texlive/2018/texmf-dist/tex/latex/base/inputenc.sty
INPUT /usr/local/texlive/2018/texmf-dist/tex/latex/base/inputenc.sty
INPUT /usr/local/texlive/2018/texmf-dist/fonts/tfm/public/stix/t1-stixgeneral-bold.tfm
INPUT /usr/local/texlive/2018/texmf-dist/fonts/tfm/public/stix/t1-stixgeneral-bold.tfm
INPUT /usr/local/texlive/2018/texmf-dist/fonts/tfm/public/stix/t1-stixgeneral.tfm
INPUT /usr/local/texlive/2018/texmf-dist/fonts/tfm/public/stix/stix-mathrm.tfm
INPUT /usr/local/texlive/2018/texmf-dist/fonts/tfm/public/stix/stix-mathrm.tfm
INPUT /usr/local/texlive/2018/texmf-dist/fonts/tfm/public/stix/stix-mathrm.tfm
INPUT /usr/local/texlive/2018/texmf-dist/fonts/tfm/public/stix/stix-mathit.tfm
INPUT /usr/local/texlive/2018/texmf-dist/fonts/tfm/public/stix/stix-mathit.tfm
INPUT /usr/local/texlive/2018/texmf-dist/fonts/tfm/public/stix/stix-mathit.tfm
INPUT /usr/local/texlive/2018/texmf-dist/tex/latex/stix/ls1stixscr.fd
INPUT /usr/local/texlive/2018/texmf-dist/tex/latex/stix/ls1stixscr.fd
INPUT /usr/local/texlive/2018/texmf-dist/fonts/tfm/public/stix/stix-mathscr.tfm
INPUT /usr/local/texlive/2018/texmf-dist/fonts/tfm/public/stix/stix-mathscr.tfm
INPUT /usr/local/texlive/2018/texmf-dist/fonts/tfm/public/stix/stix-mathscr.tfm
INPUT /usr/local/texlive/2018/texmf-dist/tex/latex/stix/ls2stixex.fd
INPUT /usr/local/texlive/2018/texmf-dist/tex/latex/stix/ls2stixex.fd
INPUT /usr/local/texlive/2018/texmf-dist/fonts/tfm/public/stix/stix-mathex.tfm
INPUT /usr/local/texlive/2018/texmf-dist/fonts/tfm/public/stix/stix-mathex.tfm
INPUT /usr/local/texlive/2018/texmf-dist/fonts/tfm/public/stix/stix-mathex.tfm
INPUT /usr/local/texlive/2018/texmf-dist/fonts/tfm/public/stix/stix-mathrm-bold.tfm
INPUT /usr/local/texlive/2018/texmf-dist/fonts/tfm/public/stix/stix-mathrm-bold.tfm
INPUT /usr/local/texlive/2018/texmf-dist/fonts/tfm/public/stix/stix-mathrm-bold.tfm
INPUT /usr/local/texlive/2018/texmf-dist/tex/latex/stix/ls1stixfrak.fd
INPUT /usr/local/texlive/2018/texmf-dist/tex/latex/stix/ls1stixfrak.fd
INPUT /usr/local/texlive/2018/texmf-dist/fonts/tfm/public/stix/stix-mathfrak.tfm
INPUT /usr/local/texlive/2018/texmf-dist/fonts/tfm/public/stix/stix-mathfrak.tfm
INPUT /usr/local/texlive/2018/texmf-dist/fonts/tfm/public/stix/stix-mathfrak.tfm
INPUT /usr/local/texlive/2018/texmf-dist/tex/latex/stix/ls1stixbb.fd
INPUT /usr/local/texlive/2018/texmf-dist/tex/latex/stix/ls1stixbb.fd
INPUT /usr/local/texlive/2018/texmf-dist/fonts/tfm/public/stix/stix-mathbb.tfm
INPUT /usr/local/texlive/2018/texmf-dist/fonts/tfm/public/stix/stix-mathbb.tfm
INPUT /usr/local/texlive/2018/texmf-dist/fonts/tfm/public/stix/stix-mathbb.tfm
INPUT /usr/local/texlive/2018/texmf-dist/fonts/tfm/public/stix/stix-mathbbit.tfm
INPUT /usr/local/texlive/2018/texmf-dist/fonts/tfm/public/stix/stix-mathbbit.tfm
INPUT /usr/local/texlive/2018/texmf-dist/fonts/tfm/public/stix/stix-mathbbit.tfm
INPUT /usr/local/texlive/2018/texmf-dist/tex/latex/stix/ls2stixcal.fd
INPUT /usr/local/texlive/2018/texmf-dist/tex/latex/stix/ls2stixcal.fd
INPUT /usr/local/texlive/2018/texmf-dist/fonts/tfm/public/stix/stix-mathcal.tfm
INPUT /usr/local/texlive/2018/texmf-dist/fonts/tfm/public/stix/stix-mathcal.tfm
INPUT /usr/local/texlive/2018/texmf-dist/fonts/tfm/public/stix/stix-mathcal.tfm
INPUT /usr/local/texlive/2018/texmf-dist/tex/latex/stix/ls1stixsf.fd
INPUT /usr/local/texlive/2018/texmf-dist/tex/latex/stix/ls1stixsf.fd
INPUT /usr/local/texlive/2018/texmf-dist/fonts/tfm/public/stix/stix-mathsf.tfm
INPUT /usr/local/texlive/2018/texmf-dist/fonts/tfm/public/stix/stix-mathsf.tfm
INPUT /usr/local/texlive/2018/texmf-dist/fonts/tfm/public/stix/stix-mathsf.tfm
INPUT /usr/local/texlive/2018/texmf-dist/fonts/tfm/public/stix/stix-mathsfit.tfm
INPUT /usr/local/texlive/2018/texmf-dist/fonts/tfm/public/stix/stix-mathsfit.tfm
INPUT /usr/local/texlive/2018/texmf-dist/fonts/tfm/public/stix/stix-mathsfit.tfm
INPUT /usr/local/texlive/2018/texmf-dist/tex/latex/stix/ls2stixtt.fd
INPUT /usr/local/texlive/2018/texmf-dist/tex/latex/stix/ls2stixtt.fd
INPUT /usr/local/texlive/2018/texmf-dist/fonts/tfm/public/stix/stix-mathtt.tfm
INPUT /usr/local/texlive/2018/texmf-dist/fonts/tfm/public/stix/stix-mathtt.tfm
INPUT /usr/local/texlive/2018/texmf-dist/fonts/tfm/public/stix/stix-mathtt.tfm
INPUT /usr/local/texlive/2018/texmf-dist/fonts/tfm/public/stix/stix-mathit-bold.tfm
INPUT /usr/local/texlive/2018/texmf-dist/fonts/tfm/public/stix/stix-mathit-bold.tfm
INPUT /usr/local/texlive/2018/texmf-dist/fonts/tfm/public/stix/stix-mathit-bold.tfm
INPUT /usr/local/texlive/2018/texmf-dist/fonts/tfm/public/stix/stix-mathscr-bold.tfm
INPUT /usr/local/texlive/2018/texmf-dist/fonts/tfm/public/stix/stix-mathscr-bold.tfm
INPUT /usr/local/texlive/2018/texmf-dist/fonts/tfm/public/stix/stix-mathscr-bold.tfm
INPUT /usr/local/texlive/2018/texmf-dist/fonts/tfm/public/stix/t1-stixgeneral.tfm
INPUT /usr/local/texlive/2018/texmf-dist/fonts/tfm/public/stix/stix-mathrm.tfm
INPUT /usr/local/texlive/2018/texmf-dist/fonts/tfm/public/stix/stix-mathit.tfm
INPUT /usr/local/texlive/2018/texmf-dist/fonts/tfm/public/stix/stix-mathscr.tfm
INPUT /usr/local/texlive/2018/texmf-dist/fonts/tfm/public/stix/stix-mathex.tfm
INPUT /usr/local/texlive/2018/texmf-dist/fonts/tfm/public/stix/stix-mathrm-bold.tfm
INPUT /usr/local/texlive/2018/texmf-dist/fonts/tfm/public/stix/stix-mathfrak.tfm
INPUT /usr/local/texlive/2018/texmf-dist/fonts/tfm/public/stix/stix-mathbb.tfm
INPUT /usr/local/texlive/2018/texmf-dist/fonts/tfm/public/stix/stix-mathbbit.tfm
INPUT /usr/local/texlive/2018/texmf-dist/fonts/tfm/public/stix/stix-mathcal.tfm
INPUT /usr/local/texlive/2018/texmf-dist/fonts/tfm/public/stix/stix-mathsf.tfm
INPUT /usr/local/texlive/2018/texmf-dist/fonts/tfm/public/stix/stix-mathsfit.tfm
INPUT /usr/local/texlive/2018/texmf-dist/fonts/tfm/public/stix/stix-mathtt.tfm
INPUT /usr/local/texlive/2018/texmf-dist/fonts/tfm/public/stix/stix-mathit-bold.tfm
INPUT /usr/local/texlive/2018/texmf-dist/fonts/tfm/public/stix/stix-mathscr-bold.tfm
INPUT /usr/local/texlive/2018/texmf-dist/fonts/tfm/public/stix/t1-stixgeneral.tfm
INPUT /usr/local/texlive/2018/texmf-dist/fonts/tfm/public/stix/t1-stixgeneral-bold.tfm
INPUT /usr/local/texlive/2018/texmf-dist/fonts/tfm/public/stix/t1-stixgeneral.tfm
INPUT /usr/local/texlive/2018/texmf-dist/fonts/tfm/public/stix/t1-stixgeneral-bold.tfm
INPUT /usr/local/texlive/2018/texmf-dist/fonts/tfm/public/stix/stix-mathrm.tfm
INPUT /usr/local/texlive/2018/texmf-dist/fonts/tfm/public/stix/stix-mathrm.tfm
INPUT /usr/local/texlive/2018/texmf-dist/fonts/tfm/public/stix/stix-mathrm.tfm
INPUT /usr/local/texlive/2018/texmf-dist/fonts/tfm/public/stix/stix-mathit.tfm
INPUT /usr/local/texlive/2018/texmf-dist/fonts/tfm/public/stix/stix-mathit.tfm
INPUT /usr/local/texlive/2018/texmf-dist/fonts/tfm/public/stix/stix-mathit.tfm
INPUT /usr/local/texlive/2018/texmf-dist/fonts/tfm/public/stix/stix-mathscr.tfm
INPUT /usr/local/texlive/2018/texmf-dist/fonts/tfm/public/stix/stix-mathscr.tfm
INPUT /usr/local/texlive/2018/texmf-dist/fonts/tfm/public/stix/stix-mathscr.tfm
INPUT /usr/local/texlive/2018/texmf-dist/fonts/tfm/public/stix/stix-mathex.tfm
INPUT /usr/local/texlive/2018/texmf-dist/fonts/tfm/public/stix/stix-mathex.tfm
INPUT /usr/local/texlive/2018/texmf-dist/fonts/tfm/public/stix/stix-mathex.tfm
INPUT /usr/local/texlive/2018/texmf-dist/fonts/tfm/public/stix/stix-mathrm-bold.tfm
INPUT /usr/local/texlive/2018/texmf-dist/fonts/tfm/public/stix/stix-mathrm-bold.tfm
INPUT /usr/local/texlive/2018/texmf-dist/fonts/tfm/public/stix/stix-mathrm-bold.tfm
INPUT /usr/local/texlive/2018/texmf-dist/fonts/tfm/public/stix/stix-mathfrak.tfm
INPUT /usr/local/texlive/2018/texmf-dist/fonts/tfm/public/stix/stix-mathfrak.tfm
INPUT /usr/local/texlive/2018/texmf-dist/fonts/tfm/public/stix/stix-mathfrak.tfm
INPUT /usr/local/texlive/2018/texmf-dist/fonts/tfm/public/stix/stix-mathbb.tfm
INPUT /usr/local/texlive/2018/texmf-dist/fonts/tfm/public/stix/stix-mathbb.tfm
INPUT /usr/local/texlive/2018/texmf-dist/fonts/tfm/public/stix/stix-mathbb.tfm
INPUT /usr/local/texlive/2018/texmf-dist/fonts/tfm/public/stix/stix-mathbbit.tfm
INPUT /usr/local/texlive/2018/texmf-dist/fonts/tfm/public/stix/stix-mathbbit.tfm
INPUT /usr/local/texlive/2018/texmf-dist/fonts/tfm/public/stix/stix-mathbbit.tfm
INPUT /usr/local/texlive/2018/texmf-dist/fonts/tfm/public/stix/stix-mathcal.tfm
INPUT /usr/local/texlive/2018/texmf-dist/fonts/tfm/public/stix/stix-mathcal.tfm
INPUT /usr/local/texlive/2018/texmf-dist/fonts/tfm/public/stix/stix-mathcal.tfm
INPUT /usr/local/texlive/2018/texmf-dist/fonts/tfm/public/stix/stix-mathsf.tfm
INPUT /usr/local/texlive/2018/texmf-dist/fonts/tfm/public/stix/stix-mathsf.tfm
INPUT /usr/local/texlive/2018/texmf-dist/fonts/tfm/public/stix/stix-mathsf.tfm
INPUT /usr/local/texlive/2018/texmf-dist/fonts/tfm/public/stix/stix-mathsfit.tfm
INPUT /usr/local/texlive/2018/texmf-dist/fonts/tfm/public/stix/stix-mathsfit.tfm
INPUT /usr/local/texlive/2018/texmf-dist/fonts/tfm/public/stix/stix-mathsfit.tfm
INPUT /usr/local/texlive/2018/texmf-dist/fonts/tfm/public/stix/stix-mathtt.tfm
INPUT /usr/local/texlive/2018/texmf-dist/fonts/tfm/public/stix/stix-mathtt.tfm
INPUT /usr/local/texlive/2018/texmf-dist/fonts/tfm/public/stix/stix-mathtt.tfm
INPUT /usr/local/texlive/2018/texmf-dist/fonts/tfm/public/stix/stix-mathit-bold.tfm
INPUT /usr/local/texlive/2018/texmf-dist/fonts/tfm/public/stix/stix-mathit-bold.tfm
INPUT /usr/local/texlive/2018/texmf-dist/fonts/tfm/public/stix/stix-mathit-bold.tfm
INPUT /usr/local/texlive/2018/texmf-dist/fonts/tfm/public/stix/stix-mathscr-bold.tfm
INPUT /usr/local/texlive/2018/texmf-dist/fonts/tfm/public/stix/stix-mathscr-bold.tfm
INPUT /usr/local/texlive/2018/texmf-dist/fonts/tfm/public/stix/stix-mathscr-bold.tfm
INPUT /usr/local/texlive/2018/texmf-dist/fonts/tfm/public/stix/t1-stixgeneral-bold.tfm
INPUT /usr/local/texlive/2018/texmf-dist/fonts/tfm/public/stix/t1-stixgeneral-italic.tfm
INPUT /usr/local/texlive/2018/texmf-dist/fonts/tfm/public/stix/t1-stixgeneral.tfm
INPUT /usr/local/texlive/2018/texmf-dist/fonts/tfm/public/stix/t1-stixgeneral.tfm
INPUT /usr/local/texlive/2018/texmf-var/fonts/map/pdftex/updmap/pdftex.map
OUTPUT /Users/mebratuwakeni/Documents/manuscripts/AMA-stix/paper_repo/mixed_methods_RD_AMA/adaptive_mixed_manuscript_AMA.pag
INPUT /usr/local/texlive/2018/texmf-dist/fonts/tfm/public/stix/t1-stixgeneral-bold.tfm
INPUT /usr/local/texlive/2018/texmf-dist/fonts/tfm/public/stix/t1-stixgeneralsc.tfm
INPUT /usr/local/texlive/2018/texmf-dist/fonts/vf/public/stix/t1-stixgeneralsc.vf
INPUT /usr/local/texlive/2018/texmf-dist/fonts/tfm/public/stix/t1-stixgeneral.tfm
INPUT /usr/local/texlive/2018/texmf-dist/fonts/tfm/public/stix/t1-stixgeneral.tfm
INPUT ./figures/body_scketch.png
INPUT ./figures/body_scketch.png
INPUT ./figures/body_scketch.png
INPUT ./figures/body_scketch.png
INPUT /usr/local/texlive/2018/texmf-dist/fonts/tfm/public/stix/t1-stixgeneral-bold.tfm
INPUT ./figures/smooth_mmass.png
INPUT ./figures/smooth_mmass.png
INPUT ./figures/smooth_mmass.png
INPUT ./figures/smooth_mmass.png
INPUT ./figures/conv_mixVstdP12_l2-eps-converted-to.pdf
INPUT ./figures/conv_mixVstdP12_l2-eps-converted-to.pdf
INPUT ./figures/conv_mixVstdP12_l2-eps-converted-to.pdf
INPUT ./figures/conv_mixVstdP12_l2-eps-converted-to.pdf
INPUT ./figures/conv_mxdVstdP34_l2-eps-converted-to.pdf
INPUT ./figures/conv_mxdVstdP34_l2-eps-converted-to.pdf
INPUT ./figures/conv_mxdVstdP34_l2-eps-converted-to.pdf
INPUT ./figures/conv_mxdVstdP34_l2-eps-converted-to.pdf
INPUT ./figures/conv_mixVsStdP12-eps-converted-to.pdf
INPUT ./figures/conv_mixVsStdP12-eps-converted-to.pdf
INPUT ./figures/conv_mixVsStdP12-eps-converted-to.pdf
INPUT ./figures/conv_mixVsStdP12-eps-converted-to.pdf
INPUT ./figures/conv_mixVsStdP34-eps-converted-to.pdf
INPUT ./figures/conv_mixVsStdP34-eps-converted-to.pdf
INPUT ./figures/conv_mixVsStdP34-eps-converted-to.pdf
INPUT ./figures/conv_mixVsStdP34-eps-converted-to.pdf
INPUT ./figures/uniform_adaptive-eps-converted-to.pdf
INPUT ./figures/uniform_adaptive-eps-converted-to.pdf
INPUT ./figures/uniform_adaptive-eps-converted-to.pdf
INPUT ./figures/uniform_adaptive-eps-converted-to.pdf
INPUT ./figures/uniform_sequence.png
INPUT ./figures/uniform_sequence.png
INPUT ./figures/uniform_sequence.png
INPUT ./figures/uniform_sequence.png
INPUT ./figures/non_uniform.png
INPUT ./figures/non_uniform.png
INPUT ./figures/non_uniform.png
INPUT ./figures/non_uniform.png
INPUT ./figures/non_uniform_adaptive-eps-converted-to.pdf
INPUT ./figures/non_uniform_adaptive-eps-converted-to.pdf
INPUT ./figures/non_uniform_adaptive-eps-converted-to.pdf
INPUT ./figures/non_uniform_adaptive-eps-converted-to.pdf
INPUT ./figures/adaptive_sequence.png
INPUT ./figures/adaptive_sequence.png
INPUT ./figures/adaptive_sequence.png
INPUT ./figures/adaptive_sequence.png
INPUT ./figures/hetrogenous_domain.pdf
INPUT ./figures/hetrogenous_domain.pdf
INPUT ./figures/hetrogenous_domain.pdf
INPUT ./figures/hetrogenous_domain.pdf
INPUT ./figures/init_checker.png
INPUT ./figures/init_checker.png
INPUT ./figures/init_checker.png
INPUT ./figures/init_checker.png
INPUT ./figures/checkerboard-mass-flux.png
INPUT ./figures/checkerboard-mass-flux.png
INPUT ./figures/checkerboard-mass-flux.png
INPUT ./figures/checkerboard-mass-flux.png
INPUT ./figures/checkbd_plots.png
INPUT ./figures/checkbd_plots.png
INPUT ./figures/checkbd_plots.png
INPUT ./figures/checkbd_plots.png
INPUT ./figures/rectanagle_patches.png
INPUT ./figures/rectanagle_patches.png
INPUT ./figures/rectanagle_patches.png
INPUT ./figures/rectanagle_patches.png
INPUT ./figures/speed_comparison-eps-converted-to.pdf
INPUT ./figures/speed_comparison-eps-converted-to.pdf
INPUT ./figures/speed_comparison-eps-converted-to.pdf
INPUT ./figures/speed_comparison-eps-converted-to.pdf
INPUT ./figures/segregation_pattern.png
INPUT ./figures/segregation_pattern.png
INPUT ./figures/segregation_pattern.png
INPUT ./figures/segregation_pattern.png
INPUT ./figures/spiral.png
INPUT ./figures/spiral.png
INPUT ./figures/spiral.png
INPUT ./figures/spiral.png
INPUT ./figures/reentry.png
INPUT ./figures/reentry.png
INPUT ./figures/reentry.png
INPUT ./figures/reentry.png
INPUT /Users/mebratuwakeni/Documents/manuscripts/AMA-stix/paper_repo/mixed_methods_RD_AMA/adaptive_mixed_manuscript_AMA.bbl
INPUT /Users/mebratuwakeni/Documents/manuscripts/AMA-stix/paper_repo/mixed_methods_RD_AMA/adaptive_mixed_manuscript_AMA.bbl
INPUT /Users/mebratuwakeni/Documents/manuscripts/AMA-stix/paper_repo/mixed_methods_RD_AMA/adaptive_mixed_manuscript_AMA.aux
INPUT /usr/local/texlive/2018/texmf-dist/fonts/enc/dvips/stix/stix-t1.enc
INPUT /usr/local/texlive/2018/texmf-dist/fonts/type1/public/stix/STIXGeneral-Bold.pfb
INPUT /usr/local/texlive/2018/texmf-dist/fonts/type1/public/stix/STIXGeneral-Italic.pfb
INPUT /usr/local/texlive/2018/texmf-dist/fonts/type1/public/stix/STIXGeneral-Regular.pfb
INPUT /usr/local/texlive/2018/texmf-dist/fonts/type1/public/amsfonts/cm/cmsy10.pfb
INPUT /usr/local/texlive/2018/texmf-dist/fonts/type1/public/stix/stix-mathbb.pfb
INPUT /usr/local/texlive/2018/texmf-dist/fonts/type1/public/stix/stix-mathcal.pfb
INPUT /usr/local/texlive/2018/texmf-dist/fonts/type1/public/stix/stix-mathex.pfb
INPUT /usr/local/texlive/2018/texmf-dist/fonts/type1/public/stix/stix-mathit-bold.pfb
INPUT /usr/local/texlive/2018/texmf-dist/fonts/type1/public/stix/stix-mathit.pfb
INPUT /usr/local/texlive/2018/texmf-dist/fonts/type1/public/stix/stix-mathrm-bold.pfb
INPUT /usr/local/texlive/2018/texmf-dist/fonts/type1/public/stix/stix-mathrm.pfb
INPUT /usr/local/texlive/2018/texmf-dist/fonts/type1/public/stix/stix-mathscr.pfb
INPUT /usr/local/texlive/2018/texmf-dist/fonts/type1/public/stix/stix-mathsf.pfb
