\relax 
\providecommand\hyper@newdestlabel[2]{}
\providecommand\BKM@entry[2]{}
\providecommand\HyperFirstAtBeginDocument{\AtBeginDocument}
\HyperFirstAtBeginDocument{\ifx\hyper@anchor\@undefined
\global\let\oldcontentsline\contentsline
\gdef\contentsline#1#2#3#4{\oldcontentsline{#1}{#2}{#3}}
\global\let\oldnewlabel\newlabel
\gdef\newlabel#1#2{\newlabelxx{#1}#2}
\gdef\newlabelxx#1#2#3#4#5#6{\oldnewlabel{#1}{{#2}{#3}}}
\AtEndDocument{\ifx\hyper@anchor\@undefined
\let\contentsline\oldcontentsline
\let\newlabel\oldnewlabel
\fi}
\fi}
\global\let\hyper@last\relax 
\gdef\HyperFirstAtBeginDocument#1{#1}
\providecommand\HyField@AuxAddToFields[1]{}
\providecommand\HyField@AuxAddToCoFields[2]{}
\bibstyle{WileyNJD-AMA}
\BKM@entry{id=1,open,dest={446F632D5374617274},srcline={73}}{4120702D61646170746976652C20696D706C696369742D6578706C69636974206D697865642066696E69746520656C656D656E74206D6574686F6420666F7220646966667573696F6E2D7265616374696F6E2070726F626C656D73}
\BKM@entry{id=2,open,dest={446F632D5374617274},srcline={73}}{4162737472616374}
\BKM@entry{id=3,open,dest={73656374696F6E2E31},srcline={77}}{496E74726F64756374696F6E}
\BKM@entry{id=4,open,dest={73756273656374696F6E2E312E31},srcline={78}}{4D6F7469766174696F6E}
\citation{Chaplain2001387,GARIKIPATI2017192}
\citation{AMBROSI2011863,Morishita2008,Tewary4298,MEIER2008481,Ryser2010}
\citation{Kerckhoffs2006,Rubin1996}
\citation{Zhang2013}
\providecommand\tcolorbox@label[2]{}
\@writefile{toc}{\contentsline {chapter}{A p-adaptive, implicit-explicit mixed finite element method for diffusion-reaction problems}{1}{Doc-Start}}
\Newlabel{1}{1}
\Newlabel{2}{2}
\@writefile{toc}{\contentsline {section}{Abstract}{1}{Doc-Start}}
\@writefile{toc}{\contentsline {section}{\numberline {1}Introduction}{1}{section.1}}
\@writefile{toc}{\contentsline {subsection}{\numberline {1.1}Motivation}{1}{subsection.1.1}}
\citation{HEMAMI20193644}
\citation{OLMOS20092258}
\citation{RAMOS1983538}
\citation{BARKLEY199161}
\BKM@entry{id=5,open,dest={73756273656374696F6E2E312E32},srcline={100}}{5370617469616C206469736372657469736174696F6E}
\citation{Ricardo2015Ricardo}
\citation{TUNCER201545}
\citation{MACDONALD2016207}
\citation{Landsberg2010}
\citation{Mergia2020}
\citation{Mackenzie2021}
\citation{Boffi2013,FRANCA198889,ARNOLD1990281}
\citation{FU2016102}
\citation{Liu2021}
\citation{Kadeethum2021}
\citation{Kim2021,Jin2021,Hu2018,Li2019,Barrenechea2018,Beriot2016}
\citation{Chaudhry2015}
\citation{Beriot2016}
\citation{Chalmers2019}
\BKM@entry{id=6,open,dest={73756273656374696F6E2E312E33},srcline={148}}{54656D706F72616C206469736372657469736174696F6E}
\citation{Ascher1995}
\citation{Chaudhry2015,Singh2020,Wang2015,Burger2020}
\citation{Meng2020,Chalmers2019,DeCaria2021}
\citation{Meng2020}
\citation{DeCaria2021}
\@writefile{toc}{\contentsline {subsection}{\numberline {1.2}Spatial discretisation}{2}{subsection.1.2}}
\BKM@entry{id=7,open,dest={73756273656374696F6E2E312E34},srcline={171}}{436F6E747269627574696F6E206F662074686520776F726B}
\citation{Brass1996}
\citation{Beriot2016}
\citation{Meng2020}
\BKM@entry{id=8,open,dest={73756273656374696F6E2E312E35},srcline={183}}{4D616E75736372697074206F7267616E69736174696F6E}
\BKM@entry{id=9,open,dest={73656374696F6E2E32},srcline={193}}{4D6F64656C206F76657276696577}
\@writefile{toc}{\contentsline {subsection}{\numberline {1.3}Temporal discretisation}{3}{subsection.1.3}}
\@writefile{toc}{\contentsline {subsection}{\numberline {1.4}Contribution of the work}{3}{subsection.1.4}}
\@writefile{toc}{\contentsline {subsection}{\numberline {1.5}Manuscript organisation}{3}{subsection.1.5}}
\@writefile{toc}{\contentsline {section}{\numberline {2}Model overview}{3}{section.2}}
\newlabel{sec:model}{{2}{3}{Model overview}{section.2}{}}
\newlabel{eq:mass-balance}{{1}{3}{Model overview}{equation.2.1}{}}
\BKM@entry{id=10,open,dest={73656374696F6E2E33},srcline={234}}{5765616B20666F726D756C6174696F6E73}
\@writefile{lof}{\contentsline {figure}{\numberline {1}{\ignorespaces Schematics of the domain $\Omega $ with its boundary partitions $\Gamma _E$ and $\Gamma _N $\relax }}{4}{figure.caption.1}}
\providecommand*\caption@xref[2]{\@setref\relax\@undefined{#1}}
\newlabel{fig:scketch}{{1}{4}{Schematics of the domain $\Omega $ with its boundary partitions $\Gamma _E$ and $\Gamma _N $\relax }{figure.caption.1}{}}
\newlabel{eq:flux-const}{{2}{4}{Model overview}{equation.2.2}{}}
\newlabel{eq:bd-N}{{3}{4}{Model overview}{equation.2.3}{}}
\newlabel{eq:bd-E}{{4}{4}{Model overview}{equation.2.4}{}}
\@writefile{toc}{\contentsline {section}{\numberline {3}Weak formulations}{4}{section.3}}
\newlabel{sec:mixed-form}{{3}{4}{Weak formulations}{section.3}{}}
\BKM@entry{id=11,open,dest={73656374696F6E2E34},srcline={329}}{4469736372657469736174696F6E}
\BKM@entry{id=12,open,dest={73756273656374696F6E2E342E31},srcline={335}}{54656D706F72616C206469736372657469736174696F6E}
\newlabel{eq:flux-resist}{{5}{5}{Weak formulations}{equation.3.5}{}}
\newlabel{eq:weak-1}{{6}{5}{Weak formulations}{equation.3.6}{}}
\newlabel{eq:weak-2}{{7}{5}{Weak formulations}{equation.3.7}{}}
\@writefile{toc}{\contentsline {section}{\numberline {4}Discretisation}{5}{section.4}}
\newlabel{sec:num-method}{{4}{5}{Discretisation}{section.4}{}}
\@writefile{toc}{\contentsline {subsection}{\numberline {4.1}Temporal discretisation}{5}{subsection.4.1}}
\BKM@entry{id=13,open,dest={73756273656374696F6E2E342E32},srcline={407}}{5370617469616C206469736372657469736174696F6E}
\citation{ainsworth2003hierarchic}
\citation{GUO1986,Babuska1986}
\citation{ainsworth2003hierarchic}
\citation{FUENTES2015353}
\citation{ainsworth2003hierarchic}
\newlabel{eq:dot-combs}{{8}{6}{Temporal discretisation}{equation.4.8}{}}
\newlabel{eq:im-combs}{{9}{6}{Temporal discretisation}{equation.4.9}{}}
\newlabel{eq:ex-combs}{{10}{6}{Temporal discretisation}{equation.4.10}{}}
\newlabel{eq:bvp-1}{{11}{6}{Temporal discretisation}{equation.4.11}{}}
\newlabel{eq:bvp-2}{{12}{6}{Temporal discretisation}{equation.4.12}{}}
\@writefile{toc}{\contentsline {subsection}{\numberline {4.2}Spatial discretisation}{6}{subsection.4.2}}
\newlabel{eq:mass-space}{{13}{6}{Spatial discretisation}{equation.4.13}{}}
\newlabel{eq:flux-space}{{14}{6}{Spatial discretisation}{equation.4.14}{}}
\citation{Boffi2013}
\citation{Boffi2013}
\BKM@entry{id=14,open,dest={73656374696F6E2E35},srcline={489}}{4120706F73746572696F7269206572726F7220657374696D61746F727320616E6420702D61646170746976697479}
\newlabel{eq:trial-flux}{{15}{7}{Spatial discretisation}{equation.4.15}{}}
\newlabel{eq:matrix-sys}{{16}{7}{Spatial discretisation}{equation.4.16}{}}
\@writefile{toc}{\contentsline {section}{\numberline {5}A posteriori error estimators and p-adaptivity}{7}{section.5}}
\BKM@entry{id=15,open,dest={73756273656374696F6E2E352E31},srcline={522}}{526573696475616C20616E6420696E74657266616365206A756D70206261736564206572726F7220657374696D61746573}
\BKM@entry{id=16,open,dest={73756273656374696F6E2E352E32},srcline={548}}{557070657220626F756E64}
\newlabel{eq:energy_norm}{{17}{8}{A posteriori error estimators and p-adaptivity}{equation.5.17}{}}
\newlabel{eq:fe1}{{18}{8}{A posteriori error estimators and p-adaptivity}{equation.5.18}{}}
\newlabel{eq:fe2}{{19}{8}{A posteriori error estimators and p-adaptivity}{equation.5.19}{}}
\@writefile{toc}{\contentsline {subsection}{\numberline {5.1}Residual and interface jump based error estimates}{8}{subsection.5.1}}
\newlabel{eq:res_err_1}{{20}{8}{Residual and interface jump based error estimates}{equation.5.20}{}}
\newlabel{eq:res_err_2}{{21}{8}{Residual and interface jump based error estimates}{equation.5.21}{}}
\newlabel{eq:jump-err}{{22}{8}{Residual and interface jump based error estimates}{equation.5.22}{}}
\newlabel{eq:local_post}{{23}{8}{Residual and interface jump based error estimates}{equation.5.23}{}}
\newlabel{eq:global_post}{{24}{8}{Residual and interface jump based error estimates}{equation.5.24}{}}
\@writefile{toc}{\contentsline {subsection}{\numberline {5.2}Upper bound}{8}{subsection.5.2}}
\newlabel{eq:opt_estimate}{{26}{9}{Upper bound}{equation.5.26}{}}
\newlabel{eq:saturate}{{27}{9}{Upper bound}{equation.5.27}{}}
\newlabel{eq:rel-estimate}{{28}{9}{Upper bound}{equation.5.28}{}}
\newlabel{eq:rel1}{{29}{9}{Upper bound}{equation.5.29}{}}
\newlabel{eq:rel2}{{30}{9}{Upper bound}{equation.5.30}{}}
\BKM@entry{id=17,open,dest={73656374696F6E2E36},srcline={646}}{416461707469766520702D726566696E656D656E74207374726174656779}
\citation{Dorfler2007}
\@writefile{toc}{\contentsline {section}{\numberline {6}Adaptive p-refinement strategy}{10}{section.6}}
\BKM@entry{id=18,open,dest={73656374696F6E2E37},srcline={708}}{4E756D65726963616C206578616D706C6573}
\citation{Kaczmarczyk2020}
\citation{Tautges2004}
\citation{Balay1997}
\citation{Balay1997}
\citation{abhyankar2018petsc}
\BKM@entry{id=19,open,dest={73756273656374696F6E2E372E31},srcline={725}}{436F6E76657267656E6365207465737473}
\@writefile{loa}{\contentsline {algorithm}{\numberline {1}{\ignorespaces Pseudocode for the p-adaptive algorithm\relax }}{11}{algorithm.1}}
\newlabel{algorithm}{{1}{11}{Pseudocode for the p-adaptive algorithm\relax }{algorithm.1}{}}
\@writefile{toc}{\contentsline {section}{\numberline {7}Numerical examples}{11}{section.7}}
\newlabel{sec:num-exam}{{7}{11}{Numerical examples}{section.7}{}}
\@writefile{toc}{\contentsline {subsection}{\numberline {7.1}Convergence tests}{11}{subsection.7.1}}
\newlabel{sec:conv-test}{{7.1}{11}{Convergence tests}{subsection.7.1}{}}
\@writefile{lof}{\contentsline {figure}{\numberline {2}{\ignorespaces Exact (manufactured) solution for $m$ at $t = 1$.\relax }}{12}{figure.caption.2}}
\newlabel{fig:analytic}{{2}{12}{Exact (manufactured) solution for $m$ at $t = 1$.\relax }{figure.caption.2}{}}
\newlabel{eq:smooth_solution}{{36}{12}{\subsectionfont }{equation.7.36}{}}
\newlabel{eq:manufactured}{{37}{12}{\subsectionfont }{equation.7.37}{}}
\@writefile{lof}{\contentsline {figure}{\numberline {3}{\ignorespaces Comparison of convergence rates of the mixed (MFE) and standard (SFE) formulations with respect to the $L^2$ error norm. Figure (a) is for orders of approximation $p=1, 2$, while (b) is for $p=3,4$. The legend `order' stands for the absolute value of the slope of the convergence curve once a consistent slope is established between consecutive refinements.\relax }}{13}{figure.caption.3}}
\newlabel{fig:l2-error}{{3}{13}{Comparison of convergence rates of the mixed (MFE) and standard (SFE) formulations with respect to the $L^2$ error norm. Figure (a) is for orders of approximation $p=1, 2$, while (b) is for $p=3,4$. The legend `order' stands for the absolute value of the slope of the convergence curve once a consistent slope is established between consecutive refinements.\relax }{figure.caption.3}{}}
\@writefile{lof}{\contentsline {figure}{\numberline {4}{\ignorespaces Comparison of convergence rate the mixed (MFE) and standard (SFE) formulations with respect to the $H^1$-norm. Figure (a) is for order of approximation $p=1, 2$, for $m$ while (b) is for $p=3,4$. The legend `order' stands for the absolute value of the slope of the convergence curve once a consistent slope is established between consecutive refinements.\relax }}{13}{figure.caption.4}}
\newlabel{fig:H1-error}{{4}{13}{Comparison of convergence rate the mixed (MFE) and standard (SFE) formulations with respect to the $H^1$-norm. Figure (a) is for order of approximation $p=1, 2$, for $m$ while (b) is for $p=3,4$. The legend `order' stands for the absolute value of the slope of the convergence curve once a consistent slope is established between consecutive refinements.\relax }{figure.caption.4}{}}
\@writefile{lof}{\contentsline {figure}{\numberline {5}{\ignorespaces Comparison of the p-adaptive and uniform refinement strategies for smooth and slowly varying solution.\relax }}{14}{figure.caption.5}}
\newlabel{fig:uniform_adaptive}{{5}{14}{Comparison of the p-adaptive and uniform refinement strategies for smooth and slowly varying solution.\relax }{figure.caption.5}{}}
\@writefile{lof}{\contentsline {figure}{\numberline {6}{\ignorespaces Distribution of error and polynomial order over the mesh at each p-adaptive iteration\relax }}{14}{figure.caption.6}}
\newlabel{fig:uniform_sequence}{{6}{14}{Distribution of error and polynomial order over the mesh at each p-adaptive iteration\relax }{figure.caption.6}{}}
\@writefile{lof}{\contentsline {figure}{\numberline {7}{\ignorespaces Bump function (left) and norm of the gradient (right)\relax }}{15}{figure.caption.7}}
\newlabel{fig:non_uniform}{{7}{15}{Bump function (left) and norm of the gradient (right)\relax }{figure.caption.7}{}}
\@writefile{lof}{\contentsline {figure}{\numberline {8}{\ignorespaces Convergence comparison between uniform and adaptive p-refinements for the bump function solution.\relax }}{15}{figure.caption.8}}
\newlabel{fig:non_uniform_adaptive}{{8}{15}{Convergence comparison between uniform and adaptive p-refinements for the bump function solution.\relax }{figure.caption.8}{}}
\newlabel{sec:rough-sol}{{7.1}{15}{\subsubsectionfont }{figure.caption.9}{}}
\newlabel{eq:fisher}{{39}{15}{\subsubsectionfont }{equation.7.39}{}}
\BKM@entry{id=20,open,dest={73756273656374696F6E2E372E32},srcline={984}}{5370656564206F662074726176656C6C696E67207761766520736F6C7574696F6E73}
\@writefile{lof}{\contentsline {figure}{\numberline {9}{\ignorespaces Distribution of the error (top row) and polynomial order (bottom row) in a p-adaptive sequence.\relax }}{16}{figure.caption.9}}
\newlabel{fig:non_uniform_sequence}{{9}{16}{Distribution of the error (top row) and polynomial order (bottom row) in a p-adaptive sequence.\relax }{figure.caption.9}{}}
\@writefile{toc}{\contentsline {subsection}{\numberline {7.2}Speed of travelling wave solutions}{16}{subsection.7.2}}
\newlabel{sec:wave-speed}{{7.2}{16}{Speed of travelling wave solutions}{subsection.7.2}{}}
\@writefile{lof}{\contentsline {figure}{\numberline {10}{\ignorespaces The heterogeneous domain $\Omega = [-1,\nobreakspace  {}1]^2$ with a checkerboard pattern where in (a) the blue regions have $d = 1\times 10^{-3}$ and the rest have $d = 1\times 10^{-1}$, and in (b) an initial value $m^0 = 0.5$ is prescribed.\relax }}{17}{figure.caption.10}}
\newlabel{fig:check-board}{{10}{17}{The heterogeneous domain $\Omega = [-1,~1]^2$ with a checkerboard pattern where in (a) the blue regions have $d = 1\times 10^{-3}$ and the rest have $d = 1\times 10^{-1}$, and in (b) an initial value $m^0 = 0.5$ is prescribed.\relax }{figure.caption.10}{}}
\@writefile{lof}{\contentsline {figure}{\numberline {11}{\ignorespaces Comparison of approximations by standard and mixed methods, (a) an a priori adaptively refined mesh on which the mass concentration approximation at $t=6$ are computed based on the standard (c) and mixed (d) methods. (b) shows the distribution of magnitude of flux, computed using the mixed method using the mesh (a) at $t=6$, where singularities at the corners of the patches are shown.\relax }}{17}{figure.caption.11}}
\newlabel{fig:check-board-mass}{{11}{17}{Comparison of approximations by standard and mixed methods, (a) an a priori adaptively refined mesh on which the mass concentration approximation at $t=6$ are computed based on the standard (c) and mixed (d) methods. (b) shows the distribution of magnitude of flux, computed using the mixed method using the mesh (a) at $t=6$, where singularities at the corners of the patches are shown.\relax }{figure.caption.11}{}}
\BKM@entry{id=21,open,dest={73756273656374696F6E2E372E33},srcline={1027}}{5061747465726E20666F726D6174696F6E20696E2065636F6C6F676963616C206170706C69636174696F6E73}
\citation{GARIKIPATI2017192}
\citation{Goktepe2009}
\@writefile{lof}{\contentsline {figure}{\numberline {12}{\ignorespaces Mass concentration profile along a diagonal line from the centre of the square to the right corner (as indicated in Fig.\nobreakspace  {}\ref  {fig:check-board-mass}(a) with a red line segment) at $t=6$. Various uniform meshes at different refinement levels described by the mesh parameter $h$ along with a reference mesh (designated as Ref. Mesh), which was adaptively refined along the interfaces and corners of the patches, were used. \relax }}{18}{figure.caption.12}}
\newlabel{fig:check-board-plots}{{12}{18}{Mass concentration profile along a diagonal line from the centre of the square to the right corner (as indicated in Fig.~\ref {fig:check-board-mass}(a) with a red line segment) at $t=6$. Various uniform meshes at different refinement levels described by the mesh parameter $h$ along with a reference mesh (designated as Ref. Mesh), which was adaptively refined along the interfaces and corners of the patches, were used. \relax }{figure.caption.12}{}}
\@writefile{lof}{\contentsline {figure}{\numberline {13}{\ignorespaces Domain for the travelling wave problem. Color indicates the diffusivity, which is piecewise constant and increasing towards the right.\relax }}{18}{figure.caption.13}}
\newlabel{fig:rect_patch}{{13}{18}{Domain for the travelling wave problem. Color indicates the diffusivity, which is piecewise constant and increasing towards the right.\relax }{figure.caption.13}{}}
\citation{Mergia2020,Mimura2015}
\@writefile{lof}{\contentsline {figure}{\numberline {14}{\ignorespaces Comparison of speed of travelling wave solution with time. The broken lines correspond to the computation using the standard formulation (SFM) while the solid lines correspond to the mixed formulation (MFM). The horizontal lines mark the interface positions in the solution domain.\relax }}{19}{figure.caption.14}}
\newlabel{fig:speed_comparison}{{14}{19}{Comparison of speed of travelling wave solution with time. The broken lines correspond to the computation using the standard formulation (SFM) while the solid lines correspond to the mixed formulation (MFM). The horizontal lines mark the interface positions in the solution domain.\relax }{figure.caption.14}{}}
\@writefile{toc}{\contentsline {subsection}{\numberline {7.3}Pattern formation in ecological applications}{19}{subsection.7.3}}
\newlabel{sec:pattern-form}{{7.3}{19}{Pattern formation in ecological applications}{subsection.7.3}{}}
\newlabel{eq:three-species}{{40}{19}{\subsubsectionfont }{equation.7.40}{}}
\@writefile{lof}{\contentsline {figure}{\numberline {15}{\ignorespaces Development of segregation pattern as a result of interactions of the three species (Equation \textup  {\hbox {\mathsurround \z@ \normalfont  (\ignorespaces \ref  {eq:three-species}\unskip \@@italiccorr )}}, Table\nobreakspace  {}\ref  {tab:param-3}) at various times. The blue color surface plot represents the region dominated by $m_1$ (i.e., $m_1>m_2$ and $m_1>m_3$), red color surface plot by $m_2$, and yellow surface plot by $m_3$.\relax }}{20}{figure.caption.15}}
\newlabel{fig:segregation}{{15}{20}{Development of segregation pattern as a result of interactions of the three species (Equation \eqref {eq:three-species}, Table~\ref {tab:param-3}) at various times. The blue color surface plot represents the region dominated by $m_1$ (i.e., $m_1>m_2$ and $m_1>m_3$), red color surface plot by $m_2$, and yellow surface plot by $m_3$.\relax }{figure.caption.15}{}}
\@writefile{lot}{\contentsline {table}{\numberline {1}{\ignorespaces List of parameters for three species segregation problem\relax }}{20}{table.caption.16}}
\newlabel{tab:param-3}{{1}{20}{List of parameters for three species segregation problem\relax }{table.caption.16}{}}
\newlabel{tab:segregation}{{1}{20}{List of parameters for three species segregation problem\relax }{table.caption.16}{}}
\BKM@entry{id=22,open,dest={73756273656374696F6E2E372E34},srcline={1122}}{53706972616C20776176652072652D656E74727920696E20656C656374726F70687973696F6C6F6779}
\@writefile{lot}{\contentsline {table}{\numberline {2}{\ignorespaces List of parameters for three species cyclic interaction problem\relax }}{21}{table.caption.17}}
\newlabel{tab:param-cyclic}{{2}{21}{List of parameters for three species cyclic interaction problem\relax }{table.caption.17}{}}
\@writefile{lof}{\contentsline {figure}{\numberline {16}{\ignorespaces Development of spiral pattern as a result of cyclic interactions of three species (Equation \textup  {\hbox {\mathsurround \z@ \normalfont  (\ignorespaces \ref  {eq:three-species}\unskip \@@italiccorr )}}, Table\nobreakspace  {}\ref  {tab:param-cyclic}) at various stages. Region with blue depicts $m_1$, red $m_2$, and green $m_3$.\relax }}{21}{figure.caption.18}}
\newlabel{fig:three-species}{{16}{21}{Development of spiral pattern as a result of cyclic interactions of three species (Equation \eqref {eq:three-species}, Table~\ref {tab:param-cyclic}) at various stages. Region with blue depicts $m_1$, red $m_2$, and green $m_3$.\relax }{figure.caption.18}{}}
\@writefile{toc}{\contentsline {subsection}{\numberline {7.4}Spiral wave re-entry in electrophysiology}{21}{subsection.7.4}}
\newlabel{sec:spiral-wave}{{7.4}{21}{Spiral wave re-entry in electrophysiology}{subsection.7.4}{}}
\citation{Rubin1996}
\citation{Goktepe2009}
\@writefile{lot}{\contentsline {table}{\numberline {3}{\ignorespaces List of parameters for spiral wave re-entry problem\relax }}{22}{table.caption.19}}
\newlabel{tab:param-reentry}{{3}{22}{List of parameters for spiral wave re-entry problem\relax }{table.caption.19}{}}
\newlabel{eq:aliev-panfilov}{{41}{22}{Spiral wave re-entry in electrophysiology}{equation.7.41}{}}
\newlabel{eq:aliev-panfilov2}{{42}{22}{Spiral wave re-entry in electrophysiology}{equation.7.42}{}}
\newlabel{eq:recovery}{{43}{22}{Spiral wave re-entry in electrophysiology}{equation.7.43}{}}
\BKM@entry{id=23,open,dest={73656374696F6E2E38},srcline={1202}}{436F6E636C7573696F6E}
\citation{ainsworth2003hierarchic}
\citation{Ainsworth2008,Brass1996,Lloyd2013}
\citation{Goktepe2009,Rubin1996}
\citation{Mimura1986,Morishita2008,Mimura2015}
\citation{Lloyd2013}
\citation{Brunton3932}
\@writefile{lof}{\contentsline {figure}{\numberline {17}{\ignorespaces Evolution of a planar wave into a rotating spiral wave re-entry as a result of external stimulation $I_{\Omega '} = 40$ applied on a section of the domain during the time interval $t = 565\nobreakspace  {}\mathrm  {ms}$ to $t = 575\nobreakspace  {}\mathrm  {ms}$. The planar wave is initiated with an initial excitation of $E(t=0) = -40\nobreakspace  {}\mathrm  {mV}$.\relax }}{23}{figure.caption.20}}
\newlabel{fig:wave-reentry}{{17}{23}{Evolution of a planar wave into a rotating spiral wave re-entry as a result of external stimulation $I_{\Omega '} = 40$ applied on a section of the domain during the time interval $t = 565~\mathrm {ms}$ to $t = 575~\mathrm {ms}$. The planar wave is initiated with an initial excitation of $E(t=0) = -40~\mathrm {mV}$.\relax }{figure.caption.20}{}}
\@writefile{toc}{\contentsline {section}{\numberline {8}Conclusion}{23}{section.8}}
\BKM@entry{id=24,open,dest={73656374696F6E2E38},srcline={1238}}{41636B6E6F776C656467656D656E7473}
\BKM@entry{id=25,open,dest={73656374696F6E2E38},srcline={1242}}{417070656E646978}
\BKM@entry{id=26,open,dest={417070656E6469782E312E41},srcline={1244}}{5374616E6461726420666F726D756C6174696F6E}
\BKM@entry{id=27,open,dest={417070656E6469782E312E42},srcline={1276}}{536F6D65206F662074686520636F6D6D6F6E6C79207573656420494D455820736368656D657320696E20746865206C69746572617475726520}
\@writefile{toc}{\contentsline {section}{Acknowledgements}{24}{section.8}}
\@writefile{toc}{\contentsline {section}{Appendix}{24}{section.8}}
\@writefile{toc}{\contentsline {section}{\numberline {A}Standard formulation}{24}{Appendix.1.A}}
\newlabel{app:std-form}{{A}{24}{Standard formulation}{Appendix.1.A}{}}
\newlabel{eq:standard}{{A1}{24}{Standard formulation}{equation.1.A.1}{}}
\newlabel{eq:rhs-fun}{{A2}{24}{Standard formulation}{equation.1.A.2}{}}
\newlabel{APP:IMEX}{{B}{24}{Some of the commonly used IMEX schemes in the literature}{Appendix.1.B}{}}
\@writefile{toc}{\contentsline {section}{\numberline {B}Some of the commonly used IMEX schemes in the literature }{24}{Appendix.1.B}}
\citation{Kennedy2019}
\bibdata{references}
\BKM@entry{id=28,open,dest={417070656E6469782E312E42},srcline={1}}{5265666572656E636573}
\bibcite{Chaplain2001387}{{1}{}{{}}{{}}}
\bibcite{GARIKIPATI2017192}{{2}{}{{}}{{}}}
\bibcite{AMBROSI2011863}{{3}{}{{}}{{}}}
\bibcite{Morishita2008}{{4}{}{{}}{{}}}
\bibcite{Tewary4298}{{5}{}{{}}{{}}}
\bibcite{MEIER2008481}{{6}{}{{}}{{}}}
\bibcite{Ryser2010}{{7}{}{{}}{{}}}
\bibcite{Kerckhoffs2006}{{8}{}{{}}{{}}}
\bibcite{Rubin1996}{{9}{}{{}}{{}}}
\bibcite{Zhang2013}{{10}{}{{}}{{}}}
\bibcite{HEMAMI20193644}{{11}{}{{}}{{}}}
\bibcite{OLMOS20092258}{{12}{}{{}}{{}}}
\bibcite{RAMOS1983538}{{13}{}{{}}{{}}}
\bibcite{BARKLEY199161}{{14}{}{{}}{{}}}
\bibcite{Ricardo2015Ricardo}{{15}{}{{}}{{}}}
\bibcite{TUNCER201545}{{16}{}{{}}{{}}}
\@writefile{toc}{\contentsline {section}{References\begingroup \let \let \let \let \@unexpandable@protect \xdef {\MakeUppercase  {References}}{\MakeUppercase  {References}}{{\MakeUppercase  {References}}{\MakeUppercase  {References}}}\@temptokena {{\MakeUppercase  {References}}{\MakeUppercase  {References}}}\mark {\thm@preskip 6.0pt\thm@postskip 6.0pt\relax \thm@headfont {\bfseries  }\thm@headpunct {.}}\endgroup }{25}{Appendix.1.B}}
\bibcite{MACDONALD2016207}{{17}{}{{}}{{}}}
\bibcite{Landsberg2010}{{18}{}{{}}{{}}}
\bibcite{Mergia2020}{{19}{}{{}}{{}}}
\bibcite{Mackenzie2021}{{20}{}{{}}{{}}}
\bibcite{Boffi2013}{{21}{}{{}}{{}}}
\bibcite{FRANCA198889}{{22}{}{{}}{{}}}
\bibcite{ARNOLD1990281}{{23}{}{{}}{{}}}
\bibcite{FU2016102}{{24}{}{{}}{{}}}
\bibcite{Liu2021}{{25}{}{{}}{{}}}
\bibcite{Kadeethum2021}{{26}{}{{}}{{}}}
\bibcite{Kim2021}{{27}{}{{}}{{}}}
\bibcite{Jin2021}{{28}{}{{}}{{}}}
\bibcite{Hu2018}{{29}{}{{}}{{}}}
\bibcite{Li2019}{{30}{}{{}}{{}}}
\bibcite{Barrenechea2018}{{31}{}{{}}{{}}}
\bibcite{Beriot2016}{{32}{}{{}}{{}}}
\bibcite{Chaudhry2015}{{33}{}{{}}{{}}}
\bibcite{Chalmers2019}{{34}{}{{}}{{}}}
\bibcite{Ascher1995}{{35}{}{{}}{{}}}
\bibcite{Singh2020}{{36}{}{{}}{{}}}
\bibcite{Wang2015}{{37}{}{{}}{{}}}
\bibcite{Burger2020}{{38}{}{{}}{{}}}
\bibcite{Meng2020}{{39}{}{{}}{{}}}
\bibcite{DeCaria2021}{{40}{}{{}}{{}}}
\bibcite{Brass1996}{{41}{}{{}}{{}}}
\bibcite{ainsworth2003hierarchic}{{42}{}{{}}{{}}}
\bibcite{GUO1986}{{43}{}{{}}{{}}}
\bibcite{Babuska1986}{{44}{}{{}}{{}}}
\bibcite{FUENTES2015353}{{45}{}{{}}{{}}}
\bibcite{Dorfler2007}{{46}{}{{}}{{}}}
\bibcite{Kaczmarczyk2020}{{47}{}{{}}{{}}}
\bibcite{Tautges2004}{{48}{}{{}}{{}}}
\bibcite{Balay1997}{{49}{}{{}}{{}}}
\bibcite{abhyankar2018petsc}{{50}{}{{}}{{}}}
\bibcite{Goktepe2009}{{51}{}{{}}{{}}}
\bibcite{Mimura2015}{{52}{}{{}}{{}}}
\bibcite{Ainsworth2008}{{53}{}{{}}{{}}}
\bibcite{Lloyd2013}{{54}{}{{}}{{}}}
\bibcite{Mimura1986}{{55}{}{{}}{{}}}
\bibcite{Brunton3932}{{56}{}{{}}{{}}}
\bibcite{Kennedy2019}{{57}{}{{}}{{}}}
\FirstPg{0}\LastPg{27}
\providecommand\NAT@force@numbers{}\NAT@force@numbers
